/*
WARNING: Do NOT edit the input and output ports in this file in a text
editor if you plan to continue editing the block that represents it in
the Block Editor! File corruption is VERY likely to occur.
*/
/*
Copyright (C) 1991-2010 Altera Corporation
Your use of Altera Corporation's design tools, logic functions 
and other software and tools, and its AMPP partner logic 
functions, and any output files from any of the foregoing 
(including device programming or simulation files), and any 
associated documentation or information are expressly subject 
to the terms and conditions of the Altera Program License 
Subscription Agreement, Altera MegaCore Function License 
Agreement, or other applicable license agreement, including, 
without limitation, that your use is for the sole purpose of 
programming logic devices manufactured by Altera and sold by 
Altera or its authorized distributors.  Please refer to the 
applicable agreement for further details.
*/
//#pragma file_not_in_maxplusii_format
(header "graphic" (version "1.3"))
(pin
	(input)
	(rect -40 112 128 128)
	(text "INPUT" (rect 133 0 161 10)(font "Arial" (font_size 6)))
	(text "A" (rect 5 0 12 12)(font "Arial" ))
	(pt 168 8)
	(drawing
		(line (pt 92 12)(pt 117 12)(line_width 1))
		(line (pt 92 4)(pt 117 4)(line_width 1))
		(line (pt 121 8)(pt 168 8)(line_width 1))
		(line (pt 92 12)(pt 92 4)(line_width 1))
		(line (pt 117 4)(pt 121 8)(line_width 1))
		(line (pt 117 12)(pt 121 8)(line_width 1))
	)
	(text "VCC" (rect 136 7 156 17)(font "Arial" (font_size 6)))
)
(pin
	(input)
	(rect -40 176 128 192)
	(text "INPUT" (rect 133 0 161 10)(font "Arial" (font_size 6)))
	(text "B" (rect 5 0 12 12)(font "Arial" ))
	(pt 168 8)
	(drawing
		(line (pt 92 12)(pt 117 12)(line_width 1))
		(line (pt 92 4)(pt 117 4)(line_width 1))
		(line (pt 121 8)(pt 168 8)(line_width 1))
		(line (pt 92 12)(pt 92 4)(line_width 1))
		(line (pt 117 4)(pt 121 8)(line_width 1))
		(line (pt 117 12)(pt 121 8)(line_width 1))
	)
	(text "VCC" (rect 136 7 156 17)(font "Arial" (font_size 6)))
)
(pin
	(input)
	(rect -40 256 128 272)
	(text "INPUT" (rect 133 0 161 10)(font "Arial" (font_size 6)))
	(text "C" (rect 5 0 13 12)(font "Arial" ))
	(pt 168 8)
	(drawing
		(line (pt 92 12)(pt 117 12)(line_width 1))
		(line (pt 92 4)(pt 117 4)(line_width 1))
		(line (pt 121 8)(pt 168 8)(line_width 1))
		(line (pt 92 12)(pt 92 4)(line_width 1))
		(line (pt 117 4)(pt 121 8)(line_width 1))
		(line (pt 117 12)(pt 121 8)(line_width 1))
	)
	(text "VCC" (rect 136 7 156 17)(font "Arial" (font_size 6)))
)
(pin
	(output)
	(rect 504 176 680 192)
	(text "OUTPUT" (rect 1 0 39 10)(font "Arial" (font_size 6)))
	(text "F" (rect 90 0 97 12)(font "Arial" ))
	(pt 0 8)
	(drawing
		(line (pt 0 8)(pt 52 8)(line_width 1))
		(line (pt 52 4)(pt 78 4)(line_width 1))
		(line (pt 52 12)(pt 78 12)(line_width 1))
		(line (pt 52 12)(pt 52 4)(line_width 1))
		(line (pt 78 4)(pt 82 8)(line_width 1))
		(line (pt 82 8)(pt 78 12)(line_width 1))
		(line (pt 78 12)(pt 82 8)(line_width 1))
	)
)
(symbol
	(rect 224 168 288 216)
	(text "NAND2" (rect 1 0 32 10)(font "Arial" (font_size 6)))
	(text "inst" (rect 3 37 20 49)(font "Arial" ))
	(port
		(pt 0 32)
		(input)
		(text "IN2" (rect 2 23 19 35)(font "Courier New" (bold))(invisible))
		(text "IN2" (rect 2 23 19 35)(font "Courier New" (bold))(invisible))
		(line (pt 0 32)(pt 15 32)(line_width 1))
	)
	(port
		(pt 0 16)
		(input)
		(text "IN1" (rect 2 7 19 19)(font "Courier New" (bold))(invisible))
		(text "IN1" (rect 2 7 19 19)(font "Courier New" (bold))(invisible))
		(line (pt 0 16)(pt 15 16)(line_width 1))
	)
	(port
		(pt 64 24)
		(output)
		(text "OUT" (rect 48 15 65 27)(font "Courier New" (bold))(invisible))
		(text "OUT" (rect 48 15 65 27)(font "Courier New" (bold))(invisible))
		(line (pt 52 24)(pt 64 24)(line_width 1))
	)
	(drawing
		(line (pt 15 37)(pt 32 37)(line_width 1))
		(line (pt 15 12)(pt 32 12)(line_width 1))
		(line (pt 15 36)(pt 15 12)(line_width 1))
		(arc (pt 32 36)(pt 32 12)(rect 20 12 45 37)(line_width 1))
		(circle (rect 44 20 52 28)(line_width 1))
	)
)
(symbol
	(rect 208 248 272 296)
	(text "NAND2" (rect 1 0 32 10)(font "Arial" (font_size 6)))
	(text "inst1" (rect 3 37 26 49)(font "Arial" ))
	(port
		(pt 0 32)
		(input)
		(text "IN2" (rect 2 23 19 35)(font "Courier New" (bold))(invisible))
		(text "IN2" (rect 2 23 19 35)(font "Courier New" (bold))(invisible))
		(line (pt 0 32)(pt 15 32)(line_width 1))
	)
	(port
		(pt 0 16)
		(input)
		(text "IN1" (rect 2 7 19 19)(font "Courier New" (bold))(invisible))
		(text "IN1" (rect 2 7 19 19)(font "Courier New" (bold))(invisible))
		(line (pt 0 16)(pt 15 16)(line_width 1))
	)
	(port
		(pt 64 24)
		(output)
		(text "OUT" (rect 48 15 65 27)(font "Courier New" (bold))(invisible))
		(text "OUT" (rect 48 15 65 27)(font "Courier New" (bold))(invisible))
		(line (pt 52 24)(pt 64 24)(line_width 1))
	)
	(drawing
		(line (pt 15 37)(pt 32 37)(line_width 1))
		(line (pt 15 12)(pt 32 12)(line_width 1))
		(line (pt 15 36)(pt 15 12)(line_width 1))
		(arc (pt 32 36)(pt 32 12)(rect 20 12 45 37)(line_width 1))
		(circle (rect 44 20 52 28)(line_width 1))
	)
)
(symbol
	(rect 224 104 288 152)
	(text "NAND2" (rect 1 0 32 10)(font "Arial" (font_size 6)))
	(text "inst2" (rect 3 37 26 49)(font "Arial" ))
	(port
		(pt 0 32)
		(input)
		(text "IN2" (rect 2 23 19 35)(font "Courier New" (bold))(invisible))
		(text "IN2" (rect 2 23 19 35)(font "Courier New" (bold))(invisible))
		(line (pt 0 32)(pt 15 32)(line_width 1))
	)
	(port
		(pt 0 16)
		(input)
		(text "IN1" (rect 2 7 19 19)(font "Courier New" (bold))(invisible))
		(text "IN1" (rect 2 7 19 19)(font "Courier New" (bold))(invisible))
		(line (pt 0 16)(pt 15 16)(line_width 1))
	)
	(port
		(pt 64 24)
		(output)
		(text "OUT" (rect 48 15 65 27)(font "Courier New" (bold))(invisible))
		(text "OUT" (rect 48 15 65 27)(font "Courier New" (bold))(invisible))
		(line (pt 52 24)(pt 64 24)(line_width 1))
	)
	(drawing
		(line (pt 15 37)(pt 32 37)(line_width 1))
		(line (pt 15 12)(pt 32 12)(line_width 1))
		(line (pt 15 36)(pt 15 12)(line_width 1))
		(arc (pt 32 36)(pt 32 12)(rect 20 12 45 37)(line_width 1))
		(circle (rect 44 20 52 28)(line_width 1))
	)
)
(symbol
	(rect 328 128 392 176)
	(text "NAND2" (rect 1 0 32 10)(font "Arial" (font_size 6)))
	(text "inst3" (rect 3 37 26 49)(font "Arial" ))
	(port
		(pt 0 32)
		(input)
		(text "IN2" (rect 2 23 19 35)(font "Courier New" (bold))(invisible))
		(text "IN2" (rect 2 23 19 35)(font "Courier New" (bold))(invisible))
		(line (pt 0 32)(pt 15 32)(line_width 1))
	)
	(port
		(pt 0 16)
		(input)
		(text "IN1" (rect 2 7 19 19)(font "Courier New" (bold))(invisible))
		(text "IN1" (rect 2 7 19 19)(font "Courier New" (bold))(invisible))
		(line (pt 0 16)(pt 15 16)(line_width 1))
	)
	(port
		(pt 64 24)
		(output)
		(text "OUT" (rect 48 15 65 27)(font "Courier New" (bold))(invisible))
		(text "OUT" (rect 48 15 65 27)(font "Courier New" (bold))(invisible))
		(line (pt 52 24)(pt 64 24)(line_width 1))
	)
	(drawing
		(line (pt 15 37)(pt 32 37)(line_width 1))
		(line (pt 15 12)(pt 32 12)(line_width 1))
		(line (pt 15 36)(pt 15 12)(line_width 1))
		(arc (pt 32 36)(pt 32 12)(rect 20 12 45 37)(line_width 1))
		(circle (rect 44 20 52 28)(line_width 1))
	)
)
(symbol
	(rect 328 200 392 248)
	(text "NAND2" (rect 1 0 32 10)(font "Arial" (font_size 6)))
	(text "inst4" (rect 3 37 26 49)(font "Arial" ))
	(port
		(pt 0 32)
		(input)
		(text "IN2" (rect 2 23 19 35)(font "Courier New" (bold))(invisible))
		(text "IN2" (rect 2 23 19 35)(font "Courier New" (bold))(invisible))
		(line (pt 0 32)(pt 15 32)(line_width 1))
	)
	(port
		(pt 0 16)
		(input)
		(text "IN1" (rect 2 7 19 19)(font "Courier New" (bold))(invisible))
		(text "IN1" (rect 2 7 19 19)(font "Courier New" (bold))(invisible))
		(line (pt 0 16)(pt 15 16)(line_width 1))
	)
	(port
		(pt 64 24)
		(output)
		(text "OUT" (rect 48 15 65 27)(font "Courier New" (bold))(invisible))
		(text "OUT" (rect 48 15 65 27)(font "Courier New" (bold))(invisible))
		(line (pt 52 24)(pt 64 24)(line_width 1))
	)
	(drawing
		(line (pt 15 37)(pt 32 37)(line_width 1))
		(line (pt 15 12)(pt 32 12)(line_width 1))
		(line (pt 15 36)(pt 15 12)(line_width 1))
		(arc (pt 32 36)(pt 32 12)(rect 20 12 45 37)(line_width 1))
		(circle (rect 44 20 52 28)(line_width 1))
	)
)
(symbol
	(rect 416 160 480 208)
	(text "NAND2" (rect 1 0 32 10)(font "Arial" (font_size 6)))
	(text "inst5" (rect 3 37 26 49)(font "Arial" ))
	(port
		(pt 0 32)
		(input)
		(text "IN2" (rect 2 23 19 35)(font "Courier New" (bold))(invisible))
		(text "IN2" (rect 2 23 19 35)(font "Courier New" (bold))(invisible))
		(line (pt 0 32)(pt 15 32)(line_width 1))
	)
	(port
		(pt 0 16)
		(input)
		(text "IN1" (rect 2 7 19 19)(font "Courier New" (bold))(invisible))
		(text "IN1" (rect 2 7 19 19)(font "Courier New" (bold))(invisible))
		(line (pt 0 16)(pt 15 16)(line_width 1))
	)
	(port
		(pt 64 24)
		(output)
		(text "OUT" (rect 48 15 65 27)(font "Courier New" (bold))(invisible))
		(text "OUT" (rect 48 15 65 27)(font "Courier New" (bold))(invisible))
		(line (pt 52 24)(pt 64 24)(line_width 1))
	)
	(drawing
		(line (pt 15 37)(pt 32 37)(line_width 1))
		(line (pt 15 12)(pt 32 12)(line_width 1))
		(line (pt 15 36)(pt 15 12)(line_width 1))
		(arc (pt 32 36)(pt 32 12)(rect 20 12 45 37)(line_width 1))
		(circle (rect 44 20 52 28)(line_width 1))
	)
)
(connector
	(pt 224 136)
	(pt 160 136)
)
(connector
	(pt 160 136)
	(pt 160 120)
)
(connector
	(pt 224 120)
	(pt 160 120)
)
(connector
	(pt 160 120)
	(pt 128 120)
)
(connector
	(pt 224 200)
	(pt 160 200)
)
(connector
	(pt 160 200)
	(pt 160 184)
)
(connector
	(pt 224 184)
	(pt 160 184)
)
(connector
	(pt 160 184)
	(pt 128 184)
)
(connector
	(pt 176 232)
	(pt 328 232)
)
(connector
	(pt 328 216)
	(pt 304 216)
)
(connector
	(pt 304 192)
	(pt 304 216)
)
(connector
	(pt 328 160)
	(pt 296 160)
)
(connector
	(pt 288 192)
	(pt 304 192)
)
(connector
	(pt 296 272)
	(pt 272 272)
)
(connector
	(pt 296 160)
	(pt 296 272)
)
(connector
	(pt 128 264)
	(pt 176 264)
)
(connector
	(pt 176 264)
	(pt 208 264)
)
(connector
	(pt 208 280)
	(pt 176 280)
)
(connector
	(pt 176 232)
	(pt 176 264)
)
(connector
	(pt 176 264)
	(pt 176 280)
)
(connector
	(pt 288 128)
	(pt 304 128)
)
(connector
	(pt 304 128)
	(pt 304 144)
)
(connector
	(pt 328 144)
	(pt 304 144)
)
(connector
	(pt 392 152)
	(pt 400 152)
)
(connector
	(pt 400 152)
	(pt 400 176)
)
(connector
	(pt 416 176)
	(pt 400 176)
)
(connector
	(pt 416 192)
	(pt 400 192)
)
(connector
	(pt 392 224)
	(pt 400 224)
)
(connector
	(pt 400 224)
	(pt 400 192)
)
(connector
	(pt 480 184)
	(pt 504 184)
)
(junction (pt 160 120))
(junction (pt 160 184))
(junction (pt 176 264))
