/*
WARNING: Do NOT edit the input and output ports in this file in a text
editor if you plan to continue editing the block that represents it in
the Block Editor! File corruption is VERY likely to occur.
*/
/*
Copyright (C) 1991-2010 Altera Corporation
Your use of Altera Corporation's design tools, logic functions 
and other software and tools, and its AMPP partner logic 
functions, and any output files from any of the foregoing 
(including device programming or simulation files), and any 
associated documentation or information are expressly subject 
to the terms and conditions of the Altera Program License 
Subscription Agreement, Altera MegaCore Function License 
Agreement, or other applicable license agreement, including, 
without limitation, that your use is for the sole purpose of 
programming logic devices manufactured by Altera and sold by 
Altera or its authorized distributors.  Please refer to the 
applicable agreement for further details.
*/
//#pragma file_not_in_maxplusii_format
(header "graphic" (version "1.3"))
(pin
	(input)
	(rect 56 40 224 56)
	(text "INPUT" (rect 133 0 161 10)(font "Arial" (font_size 6)))
	(text "S1" (rect 5 0 17 12)(font "Arial" ))
	(pt 168 8)
	(drawing
		(line (pt 92 12)(pt 117 12)(line_width 1))
		(line (pt 92 4)(pt 117 4)(line_width 1))
		(line (pt 121 8)(pt 168 8)(line_width 1))
		(line (pt 92 12)(pt 92 4)(line_width 1))
		(line (pt 117 4)(pt 121 8)(line_width 1))
		(line (pt 117 12)(pt 121 8)(line_width 1))
	)
	(text "GND" (rect 136 7 157 17)(font "Arial" (font_size 6)))
)
(pin
	(input)
	(rect 56 160 224 176)
	(text "INPUT" (rect 133 0 161 10)(font "Arial" (font_size 6)))
	(text "S2" (rect 5 0 17 12)(font "Arial" ))
	(pt 168 8)
	(drawing
		(line (pt 92 12)(pt 117 12)(line_width 1))
		(line (pt 92 4)(pt 117 4)(line_width 1))
		(line (pt 121 8)(pt 168 8)(line_width 1))
		(line (pt 92 12)(pt 92 4)(line_width 1))
		(line (pt 117 4)(pt 121 8)(line_width 1))
		(line (pt 117 12)(pt 121 8)(line_width 1))
	)
	(text "GND" (rect 136 7 157 17)(font "Arial" (font_size 6)))
)
(pin
	(input)
	(rect 56 280 224 296)
	(text "INPUT" (rect 133 0 161 10)(font "Arial" (font_size 6)))
	(text "S3" (rect 5 0 17 12)(font "Arial" ))
	(pt 168 8)
	(drawing
		(line (pt 92 12)(pt 117 12)(line_width 1))
		(line (pt 92 4)(pt 117 4)(line_width 1))
		(line (pt 121 8)(pt 168 8)(line_width 1))
		(line (pt 92 12)(pt 92 4)(line_width 1))
		(line (pt 117 4)(pt 121 8)(line_width 1))
		(line (pt 117 12)(pt 121 8)(line_width 1))
	)
	(text "GND" (rect 136 7 157 17)(font "Arial" (font_size 6)))
)
(pin
	(input)
	(rect 56 408 224 424)
	(text "INPUT" (rect 133 0 161 10)(font "Arial" (font_size 6)))
	(text "S4" (rect 5 0 17 12)(font "Arial" ))
	(pt 168 8)
	(drawing
		(line (pt 92 12)(pt 117 12)(line_width 1))
		(line (pt 92 4)(pt 117 4)(line_width 1))
		(line (pt 121 8)(pt 168 8)(line_width 1))
		(line (pt 92 12)(pt 92 4)(line_width 1))
		(line (pt 117 4)(pt 121 8)(line_width 1))
		(line (pt 117 12)(pt 121 8)(line_width 1))
	)
	(text "GND" (rect 136 7 157 17)(font "Arial" (font_size 6)))
)
(pin
	(output)
	(rect 1160 32 1336 48)
	(text "OUTPUT" (rect 1 0 39 10)(font "Arial" (font_size 6)))
	(text "A" (rect 90 0 97 12)(font "Arial" ))
	(pt 0 8)
	(drawing
		(line (pt 0 8)(pt 52 8)(line_width 1))
		(line (pt 52 4)(pt 78 4)(line_width 1))
		(line (pt 52 12)(pt 78 12)(line_width 1))
		(line (pt 52 12)(pt 52 4)(line_width 1))
		(line (pt 78 4)(pt 82 8)(line_width 1))
		(line (pt 82 8)(pt 78 12)(line_width 1))
		(line (pt 78 12)(pt 82 8)(line_width 1))
	)
)
(pin
	(output)
	(rect 1160 80 1336 96)
	(text "OUTPUT" (rect 1 0 39 10)(font "Arial" (font_size 6)))
	(text "B" (rect 90 0 97 12)(font "Arial" ))
	(pt 0 8)
	(drawing
		(line (pt 0 8)(pt 52 8)(line_width 1))
		(line (pt 52 4)(pt 78 4)(line_width 1))
		(line (pt 52 12)(pt 78 12)(line_width 1))
		(line (pt 52 12)(pt 52 4)(line_width 1))
		(line (pt 78 4)(pt 82 8)(line_width 1))
		(line (pt 82 8)(pt 78 12)(line_width 1))
		(line (pt 78 12)(pt 82 8)(line_width 1))
	)
)
(pin
	(output)
	(rect 1160 120 1336 136)
	(text "OUTPUT" (rect 1 0 39 10)(font "Arial" (font_size 6)))
	(text "C" (rect 90 0 98 12)(font "Arial" ))
	(pt 0 8)
	(drawing
		(line (pt 0 8)(pt 52 8)(line_width 1))
		(line (pt 52 4)(pt 78 4)(line_width 1))
		(line (pt 52 12)(pt 78 12)(line_width 1))
		(line (pt 52 12)(pt 52 4)(line_width 1))
		(line (pt 78 4)(pt 82 8)(line_width 1))
		(line (pt 82 8)(pt 78 12)(line_width 1))
		(line (pt 78 12)(pt 82 8)(line_width 1))
	)
)
(pin
	(output)
	(rect 1160 176 1336 192)
	(text "OUTPUT" (rect 1 0 39 10)(font "Arial" (font_size 6)))
	(text "D" (rect 90 0 98 12)(font "Arial" ))
	(pt 0 8)
	(drawing
		(line (pt 0 8)(pt 52 8)(line_width 1))
		(line (pt 52 4)(pt 78 4)(line_width 1))
		(line (pt 52 12)(pt 78 12)(line_width 1))
		(line (pt 52 12)(pt 52 4)(line_width 1))
		(line (pt 78 4)(pt 82 8)(line_width 1))
		(line (pt 82 8)(pt 78 12)(line_width 1))
		(line (pt 78 12)(pt 82 8)(line_width 1))
	)
)
(pin
	(output)
	(rect 1160 240 1336 256)
	(text "OUTPUT" (rect 1 0 39 10)(font "Arial" (font_size 6)))
	(text "E" (rect 90 0 97 12)(font "Arial" ))
	(pt 0 8)
	(drawing
		(line (pt 0 8)(pt 52 8)(line_width 1))
		(line (pt 52 4)(pt 78 4)(line_width 1))
		(line (pt 52 12)(pt 78 12)(line_width 1))
		(line (pt 52 12)(pt 52 4)(line_width 1))
		(line (pt 78 4)(pt 82 8)(line_width 1))
		(line (pt 82 8)(pt 78 12)(line_width 1))
		(line (pt 78 12)(pt 82 8)(line_width 1))
	)
)
(pin
	(output)
	(rect 1160 320 1336 336)
	(text "OUTPUT" (rect 1 0 39 10)(font "Arial" (font_size 6)))
	(text "F" (rect 90 0 97 12)(font "Arial" ))
	(pt 0 8)
	(drawing
		(line (pt 0 8)(pt 52 8)(line_width 1))
		(line (pt 52 4)(pt 78 4)(line_width 1))
		(line (pt 52 12)(pt 78 12)(line_width 1))
		(line (pt 52 12)(pt 52 4)(line_width 1))
		(line (pt 78 4)(pt 82 8)(line_width 1))
		(line (pt 82 8)(pt 78 12)(line_width 1))
		(line (pt 78 12)(pt 82 8)(line_width 1))
	)
)
(pin
	(output)
	(rect 1152 352 1328 368)
	(text "OUTPUT" (rect 1 0 39 10)(font "Arial" (font_size 6)))
	(text "G" (rect 90 0 98 12)(font "Arial" ))
	(pt 0 8)
	(drawing
		(line (pt 0 8)(pt 52 8)(line_width 1))
		(line (pt 52 4)(pt 78 4)(line_width 1))
		(line (pt 52 12)(pt 78 12)(line_width 1))
		(line (pt 52 12)(pt 52 4)(line_width 1))
		(line (pt 78 4)(pt 82 8)(line_width 1))
		(line (pt 82 8)(pt 78 12)(line_width 1))
		(line (pt 78 12)(pt 82 8)(line_width 1))
	)
)
(symbol
	(rect 1120 64 1152 80)
	(text "VCC" (rect 7 0 27 10)(font "Arial" (font_size 6)))
	(text "inst8" (rect 3 5 26 17)(font "Arial" )(invisible))
	(port
		(pt 16 16)
		(output)
		(text "1" (rect 19 7 24 19)(font "Courier New" (bold))(invisible))
		(text "1" (rect 19 7 24 19)(font "Courier New" (bold))(invisible))
		(line (pt 16 16)(pt 16 8)(line_width 1))
	)
	(drawing
		(line (pt 8 8)(pt 24 8)(line_width 1))
	)
)
(symbol
	(rect 152 72 216 120)
	(text "NAND2" (rect 1 0 32 10)(font "Arial" (font_size 6)))
	(text "n1" (rect 3 37 14 49)(font "Arial" ))
	(port
		(pt 0 32)
		(input)
		(text "IN2" (rect 2 23 19 35)(font "Courier New" (bold))(invisible))
		(text "IN2" (rect 2 23 19 35)(font "Courier New" (bold))(invisible))
		(line (pt 0 32)(pt 15 32)(line_width 1))
	)
	(port
		(pt 0 16)
		(input)
		(text "IN1" (rect 2 7 19 19)(font "Courier New" (bold))(invisible))
		(text "IN1" (rect 2 7 19 19)(font "Courier New" (bold))(invisible))
		(line (pt 0 16)(pt 15 16)(line_width 1))
	)
	(port
		(pt 64 24)
		(output)
		(text "OUT" (rect 48 15 65 27)(font "Courier New" (bold))(invisible))
		(text "OUT" (rect 48 15 65 27)(font "Courier New" (bold))(invisible))
		(line (pt 52 24)(pt 64 24)(line_width 1))
	)
	(drawing
		(line (pt 15 37)(pt 32 37)(line_width 1))
		(line (pt 15 12)(pt 32 12)(line_width 1))
		(line (pt 15 36)(pt 15 12)(line_width 1))
		(arc (pt 32 36)(pt 32 12)(rect 20 12 45 37)(line_width 1))
		(circle (rect 44 20 52 28)(line_width 1))
	)
)
(symbol
	(rect 160 192 224 240)
	(text "NAND2" (rect 1 0 32 10)(font "Arial" (font_size 6)))
	(text "n2" (rect 3 37 14 49)(font "Arial" ))
	(port
		(pt 0 32)
		(input)
		(text "IN2" (rect 2 23 19 35)(font "Courier New" (bold))(invisible))
		(text "IN2" (rect 2 23 19 35)(font "Courier New" (bold))(invisible))
		(line (pt 0 32)(pt 15 32)(line_width 1))
	)
	(port
		(pt 0 16)
		(input)
		(text "IN1" (rect 2 7 19 19)(font "Courier New" (bold))(invisible))
		(text "IN1" (rect 2 7 19 19)(font "Courier New" (bold))(invisible))
		(line (pt 0 16)(pt 15 16)(line_width 1))
	)
	(port
		(pt 64 24)
		(output)
		(text "OUT" (rect 48 15 65 27)(font "Courier New" (bold))(invisible))
		(text "OUT" (rect 48 15 65 27)(font "Courier New" (bold))(invisible))
		(line (pt 52 24)(pt 64 24)(line_width 1))
	)
	(drawing
		(line (pt 15 37)(pt 32 37)(line_width 1))
		(line (pt 15 12)(pt 32 12)(line_width 1))
		(line (pt 15 36)(pt 15 12)(line_width 1))
		(arc (pt 32 36)(pt 32 12)(rect 20 12 45 37)(line_width 1))
		(circle (rect 44 20 52 28)(line_width 1))
	)
)
(symbol
	(rect 160 312 224 360)
	(text "NAND2" (rect 1 0 32 10)(font "Arial" (font_size 6)))
	(text "n3" (rect 3 37 14 49)(font "Arial" ))
	(port
		(pt 0 32)
		(input)
		(text "IN2" (rect 2 23 19 35)(font "Courier New" (bold))(invisible))
		(text "IN2" (rect 2 23 19 35)(font "Courier New" (bold))(invisible))
		(line (pt 0 32)(pt 15 32)(line_width 1))
	)
	(port
		(pt 0 16)
		(input)
		(text "IN1" (rect 2 7 19 19)(font "Courier New" (bold))(invisible))
		(text "IN1" (rect 2 7 19 19)(font "Courier New" (bold))(invisible))
		(line (pt 0 16)(pt 15 16)(line_width 1))
	)
	(port
		(pt 64 24)
		(output)
		(text "OUT" (rect 48 15 65 27)(font "Courier New" (bold))(invisible))
		(text "OUT" (rect 48 15 65 27)(font "Courier New" (bold))(invisible))
		(line (pt 52 24)(pt 64 24)(line_width 1))
	)
	(drawing
		(line (pt 15 37)(pt 32 37)(line_width 1))
		(line (pt 15 12)(pt 32 12)(line_width 1))
		(line (pt 15 36)(pt 15 12)(line_width 1))
		(arc (pt 32 36)(pt 32 12)(rect 20 12 45 37)(line_width 1))
		(circle (rect 44 20 52 28)(line_width 1))
	)
)
(symbol
	(rect 160 440 224 488)
	(text "NAND2" (rect 1 0 32 10)(font "Arial" (font_size 6)))
	(text "n4" (rect 3 37 14 49)(font "Arial" ))
	(port
		(pt 0 32)
		(input)
		(text "IN2" (rect 2 23 19 35)(font "Courier New" (bold))(invisible))
		(text "IN2" (rect 2 23 19 35)(font "Courier New" (bold))(invisible))
		(line (pt 0 32)(pt 15 32)(line_width 1))
	)
	(port
		(pt 0 16)
		(input)
		(text "IN1" (rect 2 7 19 19)(font "Courier New" (bold))(invisible))
		(text "IN1" (rect 2 7 19 19)(font "Courier New" (bold))(invisible))
		(line (pt 0 16)(pt 15 16)(line_width 1))
	)
	(port
		(pt 64 24)
		(output)
		(text "OUT" (rect 48 15 65 27)(font "Courier New" (bold))(invisible))
		(text "OUT" (rect 48 15 65 27)(font "Courier New" (bold))(invisible))
		(line (pt 52 24)(pt 64 24)(line_width 1))
	)
	(drawing
		(line (pt 15 37)(pt 32 37)(line_width 1))
		(line (pt 15 12)(pt 32 12)(line_width 1))
		(line (pt 15 36)(pt 15 12)(line_width 1))
		(arc (pt 32 36)(pt 32 12)(rect 20 12 45 37)(line_width 1))
		(circle (rect 44 20 52 28)(line_width 1))
	)
)
(symbol
	(rect 384 288 448 336)
	(text "NAND2" (rect 1 0 32 10)(font "Arial" (font_size 6)))
	(text "3_n2" (rect 3 37 26 49)(font "Arial" ))
	(port
		(pt 0 32)
		(input)
		(text "IN2" (rect 2 23 19 35)(font "Courier New" (bold))(invisible))
		(text "IN2" (rect 2 23 19 35)(font "Courier New" (bold))(invisible))
		(line (pt 0 32)(pt 15 32)(line_width 1))
	)
	(port
		(pt 0 16)
		(input)
		(text "IN1" (rect 2 7 19 19)(font "Courier New" (bold))(invisible))
		(text "IN1" (rect 2 7 19 19)(font "Courier New" (bold))(invisible))
		(line (pt 0 16)(pt 15 16)(line_width 1))
	)
	(port
		(pt 64 24)
		(output)
		(text "OUT" (rect 48 15 65 27)(font "Courier New" (bold))(invisible))
		(text "OUT" (rect 48 15 65 27)(font "Courier New" (bold))(invisible))
		(line (pt 52 24)(pt 64 24)(line_width 1))
	)
	(drawing
		(line (pt 15 37)(pt 32 37)(line_width 1))
		(line (pt 15 12)(pt 32 12)(line_width 1))
		(line (pt 15 36)(pt 15 12)(line_width 1))
		(arc (pt 32 36)(pt 32 12)(rect 20 12 45 37)(line_width 1))
		(circle (rect 44 20 52 28)(line_width 1))
	)
)
(symbol
	(rect 384 408 448 456)
	(text "NAND3" (rect 1 0 32 10)(font "Arial" (font_size 6)))
	(text "4_3_n1" (rect 3 37 38 49)(font "Arial" ))
	(port
		(pt 0 16)
		(input)
		(text "IN1" (rect 2 7 19 19)(font "Courier New" (bold))(invisible))
		(text "IN1" (rect 2 7 19 19)(font "Courier New" (bold))(invisible))
		(line (pt 0 16)(pt 16 16)(line_width 1))
	)
	(port
		(pt 0 24)
		(input)
		(text "IN2" (rect 2 15 19 27)(font "Courier New" (bold))(invisible))
		(text "IN2" (rect 2 15 19 27)(font "Courier New" (bold))(invisible))
		(line (pt 0 24)(pt 16 24)(line_width 1))
	)
	(port
		(pt 0 32)
		(input)
		(text "IN3" (rect 2 23 19 35)(font "Courier New" (bold))(invisible))
		(text "IN3" (rect 2 23 19 35)(font "Courier New" (bold))(invisible))
		(line (pt 0 32)(pt 16 32)(line_width 1))
	)
	(port
		(pt 64 24)
		(output)
		(text "OUT" (rect 48 15 65 27)(font "Courier New" (bold))(invisible))
		(text "OUT" (rect 48 15 65 27)(font "Courier New" (bold))(invisible))
		(line (pt 52 24)(pt 64 24)(line_width 1))
	)
	(drawing
		(line (pt 16 37)(pt 32 37)(line_width 1))
		(line (pt 16 12)(pt 32 12)(line_width 1))
		(line (pt 16 36)(pt 16 12)(line_width 1))
		(arc (pt 32 36)(pt 32 12)(rect 20 12 45 37)(line_width 1))
		(circle (rect 44 20 52 28)(line_width 1))
	)
)
(symbol
	(rect 384 152 448 200)
	(text "NAND3" (rect 1 0 32 10)(font "Arial" (font_size 6)))
	(text "4_n2_n1" (rect 3 37 44 49)(font "Arial" ))
	(port
		(pt 0 16)
		(input)
		(text "IN1" (rect 2 7 19 19)(font "Courier New" (bold))(invisible))
		(text "IN1" (rect 2 7 19 19)(font "Courier New" (bold))(invisible))
		(line (pt 0 16)(pt 16 16)(line_width 1))
	)
	(port
		(pt 0 24)
		(input)
		(text "IN2" (rect 2 15 19 27)(font "Courier New" (bold))(invisible))
		(text "IN2" (rect 2 15 19 27)(font "Courier New" (bold))(invisible))
		(line (pt 0 24)(pt 16 24)(line_width 1))
	)
	(port
		(pt 0 32)
		(input)
		(text "IN3" (rect 2 23 19 35)(font "Courier New" (bold))(invisible))
		(text "IN3" (rect 2 23 19 35)(font "Courier New" (bold))(invisible))
		(line (pt 0 32)(pt 16 32)(line_width 1))
	)
	(port
		(pt 64 24)
		(output)
		(text "OUT" (rect 48 15 65 27)(font "Courier New" (bold))(invisible))
		(text "OUT" (rect 48 15 65 27)(font "Courier New" (bold))(invisible))
		(line (pt 52 24)(pt 64 24)(line_width 1))
	)
	(drawing
		(line (pt 16 37)(pt 32 37)(line_width 1))
		(line (pt 16 12)(pt 32 12)(line_width 1))
		(line (pt 16 36)(pt 16 12)(line_width 1))
		(arc (pt 32 36)(pt 32 12)(rect 20 12 45 37)(line_width 1))
		(circle (rect 44 20 52 28)(line_width 1))
	)
)
(symbol
	(rect 384 472 448 520)
	(text "NAND3" (rect 1 0 32 10)(font "Arial" (font_size 6)))
	(text "n4_n3_2" (rect 3 37 44 49)(font "Arial" ))
	(port
		(pt 0 16)
		(input)
		(text "IN1" (rect 2 7 19 19)(font "Courier New" (bold))(invisible))
		(text "IN1" (rect 2 7 19 19)(font "Courier New" (bold))(invisible))
		(line (pt 0 16)(pt 16 16)(line_width 1))
	)
	(port
		(pt 0 24)
		(input)
		(text "IN2" (rect 2 15 19 27)(font "Courier New" (bold))(invisible))
		(text "IN2" (rect 2 15 19 27)(font "Courier New" (bold))(invisible))
		(line (pt 0 24)(pt 16 24)(line_width 1))
	)
	(port
		(pt 0 32)
		(input)
		(text "IN3" (rect 2 23 19 35)(font "Courier New" (bold))(invisible))
		(text "IN3" (rect 2 23 19 35)(font "Courier New" (bold))(invisible))
		(line (pt 0 32)(pt 16 32)(line_width 1))
	)
	(port
		(pt 64 24)
		(output)
		(text "OUT" (rect 48 15 65 27)(font "Courier New" (bold))(invisible))
		(text "OUT" (rect 48 15 65 27)(font "Courier New" (bold))(invisible))
		(line (pt 52 24)(pt 64 24)(line_width 1))
	)
	(drawing
		(line (pt 16 37)(pt 32 37)(line_width 1))
		(line (pt 16 12)(pt 32 12)(line_width 1))
		(line (pt 16 36)(pt 16 12)(line_width 1))
		(arc (pt 32 36)(pt 32 12)(rect 20 12 45 37)(line_width 1))
		(circle (rect 44 20 52 28)(line_width 1))
	)
)
(symbol
	(rect 384 344 448 392)
	(text "NAND3" (rect 1 0 32 10)(font "Arial" (font_size 6)))
	(text "n3_2_1" (rect 3 37 38 49)(font "Arial" ))
	(port
		(pt 0 16)
		(input)
		(text "IN1" (rect 2 7 19 19)(font "Courier New" (bold))(invisible))
		(text "IN1" (rect 2 7 19 19)(font "Courier New" (bold))(invisible))
		(line (pt 0 16)(pt 16 16)(line_width 1))
	)
	(port
		(pt 0 24)
		(input)
		(text "IN2" (rect 2 15 19 27)(font "Courier New" (bold))(invisible))
		(text "IN2" (rect 2 15 19 27)(font "Courier New" (bold))(invisible))
		(line (pt 0 24)(pt 16 24)(line_width 1))
	)
	(port
		(pt 0 32)
		(input)
		(text "IN3" (rect 2 23 19 35)(font "Courier New" (bold))(invisible))
		(text "IN3" (rect 2 23 19 35)(font "Courier New" (bold))(invisible))
		(line (pt 0 32)(pt 16 32)(line_width 1))
	)
	(port
		(pt 64 24)
		(output)
		(text "OUT" (rect 48 15 65 27)(font "Courier New" (bold))(invisible))
		(text "OUT" (rect 48 15 65 27)(font "Courier New" (bold))(invisible))
		(line (pt 52 24)(pt 64 24)(line_width 1))
	)
	(drawing
		(line (pt 16 37)(pt 32 37)(line_width 1))
		(line (pt 16 12)(pt 32 12)(line_width 1))
		(line (pt 16 36)(pt 16 12)(line_width 1))
		(arc (pt 32 36)(pt 32 12)(rect 20 12 45 37)(line_width 1))
		(circle (rect 44 20 52 28)(line_width 1))
	)
)
(symbol
	(rect 520 -48 624 64)
	(text "NAND5" (rect 29 -1 76 15)(font "Courier New" (font_size 10)(bold)))
	(text "inst" (rect 3 101 17 111)(font "Arial" (font_size 6)))
	(port
		(pt 0 88)
		(input)
		(text "IN5" (rect 20 84 37 96)(font "Courier New" (bold)))
		(text "IN5" (rect 20 84 37 96)(font "Courier New" (bold)))
		(line (pt 0 88)(pt 16 88)(line_width 1))
	)
	(port
		(pt 0 72)
		(input)
		(text "IN4" (rect 20 68 37 80)(font "Courier New" (bold)))
		(text "IN4" (rect 20 68 37 80)(font "Courier New" (bold)))
		(line (pt 0 72)(pt 16 72)(line_width 1))
	)
	(port
		(pt 0 56)
		(input)
		(text "IN3" (rect 20 52 37 64)(font "Courier New" (bold)))
		(text "IN3" (rect 20 52 37 64)(font "Courier New" (bold)))
		(line (pt 0 56)(pt 16 56)(line_width 1))
	)
	(port
		(pt 0 40)
		(input)
		(text "IN2" (rect 20 36 37 48)(font "Courier New" (bold)))
		(text "IN2" (rect 20 36 37 48)(font "Courier New" (bold)))
		(line (pt 0 40)(pt 16 40)(line_width 1))
	)
	(port
		(pt 0 24)
		(input)
		(text "IN1" (rect 20 20 37 32)(font "Courier New" (bold)))
		(text "IN1" (rect 20 20 37 32)(font "Courier New" (bold)))
		(line (pt 0 24)(pt 16 24)(line_width 1))
	)
	(port
		(pt 104 56)
		(output)
		(text "OUT" (rect 71 52 88 64)(font "Courier New" (bold)))
		(text "OUT" (rect 71 52 88 64)(font "Courier New" (bold)))
		(line (pt 88 56)(pt 104 56)(line_width 1))
	)
	(drawing
		(line (pt 16 96)(pt 16 16)(line_width 1))
		(line (pt 88 96)(pt 88 16)(line_width 1))
		(line (pt 16 96)(pt 88 96)(line_width 1))
		(line (pt 16 16)(pt 88 16)(line_width 1))
	)
)
(symbol
	(rect 536 184 600 232)
	(text "NAND2" (rect 1 0 32 10)(font "Arial" (font_size 6)))
	(text "n4_n2" (rect 3 37 32 49)(font "Arial" ))
	(port
		(pt 0 32)
		(input)
		(text "IN2" (rect 2 23 19 35)(font "Courier New" (bold))(invisible))
		(text "IN2" (rect 2 23 19 35)(font "Courier New" (bold))(invisible))
		(line (pt 0 32)(pt 15 32)(line_width 1))
	)
	(port
		(pt 0 16)
		(input)
		(text "IN1" (rect 2 7 19 19)(font "Courier New" (bold))(invisible))
		(text "IN1" (rect 2 7 19 19)(font "Courier New" (bold))(invisible))
		(line (pt 0 16)(pt 15 16)(line_width 1))
	)
	(port
		(pt 64 24)
		(output)
		(text "OUT" (rect 48 15 65 27)(font "Courier New" (bold))(invisible))
		(text "OUT" (rect 48 15 65 27)(font "Courier New" (bold))(invisible))
		(line (pt 52 24)(pt 64 24)(line_width 1))
	)
	(drawing
		(line (pt 15 37)(pt 32 37)(line_width 1))
		(line (pt 15 12)(pt 32 12)(line_width 1))
		(line (pt 15 36)(pt 15 12)(line_width 1))
		(arc (pt 32 36)(pt 32 12)(rect 20 12 45 37)(line_width 1))
		(circle (rect 44 20 52 28)(line_width 1))
	)
)
(symbol
	(rect 536 240 600 288)
	(text "NAND2" (rect 1 0 32 10)(font "Arial" (font_size 6)))
	(text "3_2" (rect 3 37 20 49)(font "Arial" ))
	(port
		(pt 0 32)
		(input)
		(text "IN2" (rect 2 23 19 35)(font "Courier New" (bold))(invisible))
		(text "IN2" (rect 2 23 19 35)(font "Courier New" (bold))(invisible))
		(line (pt 0 32)(pt 15 32)(line_width 1))
	)
	(port
		(pt 0 16)
		(input)
		(text "IN1" (rect 2 7 19 19)(font "Courier New" (bold))(invisible))
		(text "IN1" (rect 2 7 19 19)(font "Courier New" (bold))(invisible))
		(line (pt 0 16)(pt 15 16)(line_width 1))
	)
	(port
		(pt 64 24)
		(output)
		(text "OUT" (rect 48 15 65 27)(font "Courier New" (bold))(invisible))
		(text "OUT" (rect 48 15 65 27)(font "Courier New" (bold))(invisible))
		(line (pt 52 24)(pt 64 24)(line_width 1))
	)
	(drawing
		(line (pt 15 37)(pt 32 37)(line_width 1))
		(line (pt 15 12)(pt 32 12)(line_width 1))
		(line (pt 15 36)(pt 15 12)(line_width 1))
		(arc (pt 32 36)(pt 32 12)(rect 20 12 45 37)(line_width 1))
		(circle (rect 44 20 52 28)(line_width 1))
	)
)
(symbol
	(rect 568 520 632 568)
	(text "NAND2" (rect 1 0 32 10)(font "Arial" (font_size 6)))
	(text "n3_n2" (rect 3 37 32 49)(font "Arial" ))
	(port
		(pt 0 32)
		(input)
		(text "IN2" (rect 2 23 19 35)(font "Courier New" (bold))(invisible))
		(text "IN2" (rect 2 23 19 35)(font "Courier New" (bold))(invisible))
		(line (pt 0 32)(pt 15 32)(line_width 1))
	)
	(port
		(pt 0 16)
		(input)
		(text "IN1" (rect 2 7 19 19)(font "Courier New" (bold))(invisible))
		(text "IN1" (rect 2 7 19 19)(font "Courier New" (bold))(invisible))
		(line (pt 0 16)(pt 15 16)(line_width 1))
	)
	(port
		(pt 64 24)
		(output)
		(text "OUT" (rect 48 15 65 27)(font "Courier New" (bold))(invisible))
		(text "OUT" (rect 48 15 65 27)(font "Courier New" (bold))(invisible))
		(line (pt 52 24)(pt 64 24)(line_width 1))
	)
	(drawing
		(line (pt 15 37)(pt 32 37)(line_width 1))
		(line (pt 15 12)(pt 32 12)(line_width 1))
		(line (pt 15 36)(pt 15 12)(line_width 1))
		(arc (pt 32 36)(pt 32 12)(rect 20 12 45 37)(line_width 1))
		(circle (rect 44 20 52 28)(line_width 1))
	)
)
(symbol
	(rect 552 320 616 368)
	(text "NAND2" (rect 1 0 32 10)(font "Arial" (font_size 6)))
	(text "3_1" (rect 3 37 20 49)(font "Arial" ))
	(port
		(pt 0 32)
		(input)
		(text "IN2" (rect 2 23 19 35)(font "Courier New" (bold))(invisible))
		(text "IN2" (rect 2 23 19 35)(font "Courier New" (bold))(invisible))
		(line (pt 0 32)(pt 15 32)(line_width 1))
	)
	(port
		(pt 0 16)
		(input)
		(text "IN1" (rect 2 7 19 19)(font "Courier New" (bold))(invisible))
		(text "IN1" (rect 2 7 19 19)(font "Courier New" (bold))(invisible))
		(line (pt 0 16)(pt 15 16)(line_width 1))
	)
	(port
		(pt 64 24)
		(output)
		(text "OUT" (rect 48 15 65 27)(font "Courier New" (bold))(invisible))
		(text "OUT" (rect 48 15 65 27)(font "Courier New" (bold))(invisible))
		(line (pt 52 24)(pt 64 24)(line_width 1))
	)
	(drawing
		(line (pt 15 37)(pt 32 37)(line_width 1))
		(line (pt 15 12)(pt 32 12)(line_width 1))
		(line (pt 15 36)(pt 15 12)(line_width 1))
		(arc (pt 32 36)(pt 32 12)(rect 20 12 45 37)(line_width 1))
		(circle (rect 44 20 52 28)(line_width 1))
	)
)
(symbol
	(rect 552 392 616 440)
	(text "NAND2" (rect 1 0 32 10)(font "Arial" (font_size 6)))
	(text "n4_1" (rect 3 37 26 49)(font "Arial" ))
	(port
		(pt 0 32)
		(input)
		(text "IN2" (rect 2 23 19 35)(font "Courier New" (bold))(invisible))
		(text "IN2" (rect 2 23 19 35)(font "Courier New" (bold))(invisible))
		(line (pt 0 32)(pt 15 32)(line_width 1))
	)
	(port
		(pt 0 16)
		(input)
		(text "IN1" (rect 2 7 19 19)(font "Courier New" (bold))(invisible))
		(text "IN1" (rect 2 7 19 19)(font "Courier New" (bold))(invisible))
		(line (pt 0 16)(pt 15 16)(line_width 1))
	)
	(port
		(pt 64 24)
		(output)
		(text "OUT" (rect 48 15 65 27)(font "Courier New" (bold))(invisible))
		(text "OUT" (rect 48 15 65 27)(font "Courier New" (bold))(invisible))
		(line (pt 52 24)(pt 64 24)(line_width 1))
	)
	(drawing
		(line (pt 15 37)(pt 32 37)(line_width 1))
		(line (pt 15 12)(pt 32 12)(line_width 1))
		(line (pt 15 36)(pt 15 12)(line_width 1))
		(arc (pt 32 36)(pt 32 12)(rect 20 12 45 37)(line_width 1))
		(circle (rect 44 20 52 28)(line_width 1))
	)
)
(symbol
	(rect 568 456 632 504)
	(text "NAND3" (rect 1 0 32 10)(font "Arial" (font_size 6)))
	(text "4_n3_n1" (rect 3 37 44 49)(font "Arial" ))
	(port
		(pt 0 16)
		(input)
		(text "IN1" (rect 2 7 19 19)(font "Courier New" (bold))(invisible))
		(text "IN1" (rect 2 7 19 19)(font "Courier New" (bold))(invisible))
		(line (pt 0 16)(pt 16 16)(line_width 1))
	)
	(port
		(pt 0 24)
		(input)
		(text "IN2" (rect 2 15 19 27)(font "Courier New" (bold))(invisible))
		(text "IN2" (rect 2 15 19 27)(font "Courier New" (bold))(invisible))
		(line (pt 0 24)(pt 16 24)(line_width 1))
	)
	(port
		(pt 0 32)
		(input)
		(text "IN3" (rect 2 23 19 35)(font "Courier New" (bold))(invisible))
		(text "IN3" (rect 2 23 19 35)(font "Courier New" (bold))(invisible))
		(line (pt 0 32)(pt 16 32)(line_width 1))
	)
	(port
		(pt 64 24)
		(output)
		(text "OUT" (rect 48 15 65 27)(font "Courier New" (bold))(invisible))
		(text "OUT" (rect 48 15 65 27)(font "Courier New" (bold))(invisible))
		(line (pt 52 24)(pt 64 24)(line_width 1))
	)
	(drawing
		(line (pt 16 37)(pt 32 37)(line_width 1))
		(line (pt 16 12)(pt 32 12)(line_width 1))
		(line (pt 16 36)(pt 16 12)(line_width 1))
		(arc (pt 32 36)(pt 32 12)(rect 20 12 45 37)(line_width 1))
		(circle (rect 44 20 52 28)(line_width 1))
	)
)
(symbol
	(rect 664 56 728 168)
	(text "NAND6" (rect 1 0 32 10)(font "Arial" (font_size 6)))
	(text "inst1" (rect 3 101 26 113)(font "Arial" ))
	(port
		(pt 0 48)
		(input)
		(text "IN3" (rect 2 39 19 51)(font "Courier New" (bold))(invisible))
		(text "IN3" (rect 2 39 19 51)(font "Courier New" (bold))(invisible))
		(line (pt 0 48)(pt 18 48)(line_width 1))
	)
	(port
		(pt 0 32)
		(input)
		(text "IN2" (rect 2 23 19 35)(font "Courier New" (bold))(invisible))
		(text "IN2" (rect 2 23 19 35)(font "Courier New" (bold))(invisible))
		(line (pt 0 32)(pt 18 32)(line_width 1))
	)
	(port
		(pt 0 16)
		(input)
		(text "IN1" (rect 2 7 19 19)(font "Courier New" (bold))(invisible))
		(text "IN1" (rect 2 7 19 19)(font "Courier New" (bold))(invisible))
		(line (pt 0 16)(pt 18 16)(line_width 1))
	)
	(port
		(pt 0 96)
		(input)
		(text "IN6" (rect 2 87 19 99)(font "Courier New" (bold))(invisible))
		(text "IN6" (rect 2 87 19 99)(font "Courier New" (bold))(invisible))
		(line (pt 0 96)(pt 18 96)(line_width 1))
	)
	(port
		(pt 0 64)
		(input)
		(text "IN4" (rect 2 55 19 67)(font "Courier New" (bold))(invisible))
		(text "IN4" (rect 2 55 19 67)(font "Courier New" (bold))(invisible))
		(line (pt 0 64)(pt 18 64)(line_width 1))
	)
	(port
		(pt 0 80)
		(input)
		(text "IN5" (rect 2 71 19 83)(font "Courier New" (bold))(invisible))
		(text "IN5" (rect 2 71 19 83)(font "Courier New" (bold))(invisible))
		(line (pt 0 80)(pt 18 80)(line_width 1))
	)
	(port
		(pt 64 56)
		(output)
		(text "OUT" (rect 48 47 65 59)(font "Courier New" (bold))(invisible))
		(text "OUT" (rect 48 47 65 59)(font "Courier New" (bold))(invisible))
		(line (pt 54 56)(pt 64 56)(line_width 1))
	)
	(drawing
		(line (pt 18 44)(pt 34 44)(line_width 1))
		(line (pt 18 69)(pt 34 69)(line_width 1))
		(line (pt 18 99)(pt 18 13)(line_width 1))
		(arc (pt 34 68)(pt 34 44)(rect 22 44 47 69)(line_width 1))
		(circle (rect 46 52 54 60)(line_width 1))
	)
)
(symbol
	(rect 696 200 760 248)
	(text "NAND3" (rect 1 0 32 10)(font "Arial" (font_size 6)))
	(text "4_3_n2" (rect 3 37 38 49)(font "Arial" ))
	(port
		(pt 0 16)
		(input)
		(text "IN1" (rect 2 7 19 19)(font "Courier New" (bold))(invisible))
		(text "IN1" (rect 2 7 19 19)(font "Courier New" (bold))(invisible))
		(line (pt 0 16)(pt 16 16)(line_width 1))
	)
	(port
		(pt 0 24)
		(input)
		(text "IN2" (rect 2 15 19 27)(font "Courier New" (bold))(invisible))
		(text "IN2" (rect 2 15 19 27)(font "Courier New" (bold))(invisible))
		(line (pt 0 24)(pt 16 24)(line_width 1))
	)
	(port
		(pt 0 32)
		(input)
		(text "IN3" (rect 2 23 19 35)(font "Courier New" (bold))(invisible))
		(text "IN3" (rect 2 23 19 35)(font "Courier New" (bold))(invisible))
		(line (pt 0 32)(pt 16 32)(line_width 1))
	)
	(port
		(pt 64 24)
		(output)
		(text "OUT" (rect 48 15 65 27)(font "Courier New" (bold))(invisible))
		(text "OUT" (rect 48 15 65 27)(font "Courier New" (bold))(invisible))
		(line (pt 52 24)(pt 64 24)(line_width 1))
	)
	(drawing
		(line (pt 16 37)(pt 32 37)(line_width 1))
		(line (pt 16 12)(pt 32 12)(line_width 1))
		(line (pt 16 36)(pt 16 12)(line_width 1))
		(arc (pt 32 36)(pt 32 12)(rect 20 12 45 37)(line_width 1))
		(circle (rect 44 20 52 28)(line_width 1))
	)
)
(symbol
	(rect 704 280 768 328)
	(text "NAND3" (rect 1 0 32 10)(font "Arial" (font_size 6)))
	(text "3_n2_n1" (rect 3 37 44 49)(font "Arial" ))
	(port
		(pt 0 16)
		(input)
		(text "IN1" (rect 2 7 19 19)(font "Courier New" (bold))(invisible))
		(text "IN1" (rect 2 7 19 19)(font "Courier New" (bold))(invisible))
		(line (pt 0 16)(pt 16 16)(line_width 1))
	)
	(port
		(pt 0 24)
		(input)
		(text "IN2" (rect 2 15 19 27)(font "Courier New" (bold))(invisible))
		(text "IN2" (rect 2 15 19 27)(font "Courier New" (bold))(invisible))
		(line (pt 0 24)(pt 16 24)(line_width 1))
	)
	(port
		(pt 0 32)
		(input)
		(text "IN3" (rect 2 23 19 35)(font "Courier New" (bold))(invisible))
		(text "IN3" (rect 2 23 19 35)(font "Courier New" (bold))(invisible))
		(line (pt 0 32)(pt 16 32)(line_width 1))
	)
	(port
		(pt 64 24)
		(output)
		(text "OUT" (rect 48 15 65 27)(font "Courier New" (bold))(invisible))
		(text "OUT" (rect 48 15 65 27)(font "Courier New" (bold))(invisible))
		(line (pt 52 24)(pt 64 24)(line_width 1))
	)
	(drawing
		(line (pt 16 37)(pt 32 37)(line_width 1))
		(line (pt 16 12)(pt 32 12)(line_width 1))
		(line (pt 16 36)(pt 16 12)(line_width 1))
		(arc (pt 32 36)(pt 32 12)(rect 20 12 45 37)(line_width 1))
		(circle (rect 44 20 52 28)(line_width 1))
	)
)
(symbol
	(rect 784 208 848 288)
	(text "NAND4" (rect 1 0 32 10)(font "Arial" (font_size 6)))
	(text "inst3" (rect 3 69 26 81)(font "Arial" ))
	(port
		(pt 0 16)
		(input)
		(text "IN1" (rect 2 7 19 19)(font "Courier New" (bold))(invisible))
		(text "IN1" (rect 2 7 19 19)(font "Courier New" (bold))(invisible))
		(line (pt 0 16)(pt 18 16)(line_width 1))
	)
	(port
		(pt 0 64)
		(input)
		(text "IN4" (rect 2 55 19 67)(font "Courier New" (bold))(invisible))
		(text "IN4" (rect 2 55 19 67)(font "Courier New" (bold))(invisible))
		(line (pt 0 64)(pt 18 64)(line_width 1))
	)
	(port
		(pt 0 32)
		(input)
		(text "IN2" (rect 2 23 19 35)(font "Courier New" (bold))(invisible))
		(text "IN2" (rect 2 23 19 35)(font "Courier New" (bold))(invisible))
		(line (pt 0 32)(pt 18 32)(line_width 1))
	)
	(port
		(pt 0 48)
		(input)
		(text "IN3" (rect 2 39 19 51)(font "Courier New" (bold))(invisible))
		(text "IN3" (rect 2 39 19 51)(font "Courier New" (bold))(invisible))
		(line (pt 0 48)(pt 18 48)(line_width 1))
	)
	(port
		(pt 64 40)
		(output)
		(text "OUT" (rect 48 31 65 43)(font "Courier New" (bold))(invisible))
		(text "OUT" (rect 48 31 65 43)(font "Courier New" (bold))(invisible))
		(line (pt 54 40)(pt 64 40)(line_width 1))
	)
	(drawing
		(line (pt 18 28)(pt 34 28)(line_width 1))
		(line (pt 18 53)(pt 34 53)(line_width 1))
		(line (pt 18 67)(pt 18 13)(line_width 1))
		(arc (pt 34 52)(pt 34 28)(rect 22 28 47 53)(line_width 1))
		(circle (rect 46 36 54 44)(line_width 1))
	)
)
(symbol
	(rect 760 368 824 416)
	(text "NAND3" (rect 1 0 32 10)(font "Arial" (font_size 6)))
	(text "n4_2_1" (rect 3 37 38 49)(font "Arial" ))
	(port
		(pt 0 16)
		(input)
		(text "IN1" (rect 2 7 19 19)(font "Courier New" (bold))(invisible))
		(text "IN1" (rect 2 7 19 19)(font "Courier New" (bold))(invisible))
		(line (pt 0 16)(pt 16 16)(line_width 1))
	)
	(port
		(pt 0 24)
		(input)
		(text "IN2" (rect 2 15 19 27)(font "Courier New" (bold))(invisible))
		(text "IN2" (rect 2 15 19 27)(font "Courier New" (bold))(invisible))
		(line (pt 0 24)(pt 16 24)(line_width 1))
	)
	(port
		(pt 0 32)
		(input)
		(text "IN3" (rect 2 23 19 35)(font "Courier New" (bold))(invisible))
		(text "IN3" (rect 2 23 19 35)(font "Courier New" (bold))(invisible))
		(line (pt 0 32)(pt 16 32)(line_width 1))
	)
	(port
		(pt 64 24)
		(output)
		(text "OUT" (rect 48 15 65 27)(font "Courier New" (bold))(invisible))
		(text "OUT" (rect 48 15 65 27)(font "Courier New" (bold))(invisible))
		(line (pt 52 24)(pt 64 24)(line_width 1))
	)
	(drawing
		(line (pt 16 37)(pt 32 37)(line_width 1))
		(line (pt 16 12)(pt 32 12)(line_width 1))
		(line (pt 16 36)(pt 16 12)(line_width 1))
		(arc (pt 32 36)(pt 32 12)(rect 20 12 45 37)(line_width 1))
		(circle (rect 44 20 52 28)(line_width 1))
	)
)
(symbol
	(rect 760 448 824 496)
	(text "NAND3" (rect 1 0 32 10)(font "Arial" (font_size 6)))
	(text "n4_n3_1" (rect 3 37 44 49)(font "Arial" ))
	(port
		(pt 0 16)
		(input)
		(text "IN1" (rect 2 7 19 19)(font "Courier New" (bold))(invisible))
		(text "IN1" (rect 2 7 19 19)(font "Courier New" (bold))(invisible))
		(line (pt 0 16)(pt 16 16)(line_width 1))
	)
	(port
		(pt 0 24)
		(input)
		(text "IN2" (rect 2 15 19 27)(font "Courier New" (bold))(invisible))
		(text "IN2" (rect 2 15 19 27)(font "Courier New" (bold))(invisible))
		(line (pt 0 24)(pt 16 24)(line_width 1))
	)
	(port
		(pt 0 32)
		(input)
		(text "IN3" (rect 2 23 19 35)(font "Courier New" (bold))(invisible))
		(text "IN3" (rect 2 23 19 35)(font "Courier New" (bold))(invisible))
		(line (pt 0 32)(pt 16 32)(line_width 1))
	)
	(port
		(pt 64 24)
		(output)
		(text "OUT" (rect 48 15 65 27)(font "Courier New" (bold))(invisible))
		(text "OUT" (rect 48 15 65 27)(font "Courier New" (bold))(invisible))
		(line (pt 52 24)(pt 64 24)(line_width 1))
	)
	(drawing
		(line (pt 16 37)(pt 32 37)(line_width 1))
		(line (pt 16 12)(pt 32 12)(line_width 1))
		(line (pt 16 36)(pt 16 12)(line_width 1))
		(arc (pt 32 36)(pt 32 12)(rect 20 12 45 37)(line_width 1))
		(circle (rect 44 20 52 28)(line_width 1))
	)
)
(symbol
	(rect 768 568 832 648)
	(text "NAND4" (rect 1 0 32 10)(font "Arial" (font_size 6)))
	(text "4_3_n2_1" (rect 3 69 50 81)(font "Arial" ))
	(port
		(pt 0 16)
		(input)
		(text "IN1" (rect 2 7 19 19)(font "Courier New" (bold))(invisible))
		(text "IN1" (rect 2 7 19 19)(font "Courier New" (bold))(invisible))
		(line (pt 0 16)(pt 18 16)(line_width 1))
	)
	(port
		(pt 0 64)
		(input)
		(text "IN4" (rect 2 55 19 67)(font "Courier New" (bold))(invisible))
		(text "IN4" (rect 2 55 19 67)(font "Courier New" (bold))(invisible))
		(line (pt 0 64)(pt 18 64)(line_width 1))
	)
	(port
		(pt 0 32)
		(input)
		(text "IN2" (rect 2 23 19 35)(font "Courier New" (bold))(invisible))
		(text "IN2" (rect 2 23 19 35)(font "Courier New" (bold))(invisible))
		(line (pt 0 32)(pt 18 32)(line_width 1))
	)
	(port
		(pt 0 48)
		(input)
		(text "IN3" (rect 2 39 19 51)(font "Courier New" (bold))(invisible))
		(text "IN3" (rect 2 39 19 51)(font "Courier New" (bold))(invisible))
		(line (pt 0 48)(pt 18 48)(line_width 1))
	)
	(port
		(pt 64 40)
		(output)
		(text "OUT" (rect 48 31 65 43)(font "Courier New" (bold))(invisible))
		(text "OUT" (rect 48 31 65 43)(font "Courier New" (bold))(invisible))
		(line (pt 54 40)(pt 64 40)(line_width 1))
	)
	(drawing
		(line (pt 18 28)(pt 34 28)(line_width 1))
		(line (pt 18 53)(pt 34 53)(line_width 1))
		(line (pt 18 67)(pt 18 13)(line_width 1))
		(arc (pt 34 52)(pt 34 28)(rect 22 28 47 53)(line_width 1))
		(circle (rect 46 36 54 44)(line_width 1))
	)
)
(symbol
	(rect 920 544 984 624)
	(text "NAND4" (rect 1 0 32 10)(font "Arial" (font_size 6)))
	(text "4_n3_2_n1" (rect 3 69 56 81)(font "Arial" ))
	(port
		(pt 0 16)
		(input)
		(text "IN1" (rect 2 7 19 19)(font "Courier New" (bold))(invisible))
		(text "IN1" (rect 2 7 19 19)(font "Courier New" (bold))(invisible))
		(line (pt 0 16)(pt 18 16)(line_width 1))
	)
	(port
		(pt 0 64)
		(input)
		(text "IN4" (rect 2 55 19 67)(font "Courier New" (bold))(invisible))
		(text "IN4" (rect 2 55 19 67)(font "Courier New" (bold))(invisible))
		(line (pt 0 64)(pt 18 64)(line_width 1))
	)
	(port
		(pt 0 32)
		(input)
		(text "IN2" (rect 2 23 19 35)(font "Courier New" (bold))(invisible))
		(text "IN2" (rect 2 23 19 35)(font "Courier New" (bold))(invisible))
		(line (pt 0 32)(pt 18 32)(line_width 1))
	)
	(port
		(pt 0 48)
		(input)
		(text "IN3" (rect 2 39 19 51)(font "Courier New" (bold))(invisible))
		(text "IN3" (rect 2 39 19 51)(font "Courier New" (bold))(invisible))
		(line (pt 0 48)(pt 18 48)(line_width 1))
	)
	(port
		(pt 64 40)
		(output)
		(text "OUT" (rect 48 31 65 43)(font "Courier New" (bold))(invisible))
		(text "OUT" (rect 48 31 65 43)(font "Courier New" (bold))(invisible))
		(line (pt 54 40)(pt 64 40)(line_width 1))
	)
	(drawing
		(line (pt 18 28)(pt 34 28)(line_width 1))
		(line (pt 18 53)(pt 34 53)(line_width 1))
		(line (pt 18 67)(pt 18 13)(line_width 1))
		(arc (pt 34 52)(pt 34 28)(rect 22 28 47 53)(line_width 1))
		(circle (rect 46 36 54 44)(line_width 1))
	)
)
(symbol
	(rect 912 424 976 504)
	(text "NAND4" (rect 1 0 32 10)(font "Arial" (font_size 6)))
	(text "n4_3_n2_n1" (rect 3 69 62 81)(font "Arial" ))
	(port
		(pt 0 16)
		(input)
		(text "IN1" (rect 2 7 19 19)(font "Courier New" (bold))(invisible))
		(text "IN1" (rect 2 7 19 19)(font "Courier New" (bold))(invisible))
		(line (pt 0 16)(pt 18 16)(line_width 1))
	)
	(port
		(pt 0 64)
		(input)
		(text "IN4" (rect 2 55 19 67)(font "Courier New" (bold))(invisible))
		(text "IN4" (rect 2 55 19 67)(font "Courier New" (bold))(invisible))
		(line (pt 0 64)(pt 18 64)(line_width 1))
	)
	(port
		(pt 0 32)
		(input)
		(text "IN2" (rect 2 23 19 35)(font "Courier New" (bold))(invisible))
		(text "IN2" (rect 2 23 19 35)(font "Courier New" (bold))(invisible))
		(line (pt 0 32)(pt 18 32)(line_width 1))
	)
	(port
		(pt 0 48)
		(input)
		(text "IN3" (rect 2 39 19 51)(font "Courier New" (bold))(invisible))
		(text "IN3" (rect 2 39 19 51)(font "Courier New" (bold))(invisible))
		(line (pt 0 48)(pt 18 48)(line_width 1))
	)
	(port
		(pt 64 40)
		(output)
		(text "OUT" (rect 48 31 65 43)(font "Courier New" (bold))(invisible))
		(text "OUT" (rect 48 31 65 43)(font "Courier New" (bold))(invisible))
		(line (pt 54 40)(pt 64 40)(line_width 1))
	)
	(drawing
		(line (pt 18 28)(pt 34 28)(line_width 1))
		(line (pt 18 53)(pt 34 53)(line_width 1))
		(line (pt 18 67)(pt 18 13)(line_width 1))
		(arc (pt 34 52)(pt 34 28)(rect 22 28 47 53)(line_width 1))
		(circle (rect 46 36 54 44)(line_width 1))
	)
)
(symbol
	(rect 936 272 1040 384)
	(text "NAND5" (rect 29 -1 76 15)(font "Courier New" (font_size 10)(bold)))
	(text "inst5" (rect 3 101 26 113)(font "Arial" ))
	(port
		(pt 0 88)
		(input)
		(text "IN5" (rect 20 84 37 96)(font "Courier New" (bold)))
		(text "IN5" (rect 20 84 37 96)(font "Courier New" (bold)))
		(line (pt 0 88)(pt 16 88)(line_width 1))
	)
	(port
		(pt 0 72)
		(input)
		(text "IN4" (rect 20 68 37 80)(font "Courier New" (bold)))
		(text "IN4" (rect 20 68 37 80)(font "Courier New" (bold)))
		(line (pt 0 72)(pt 16 72)(line_width 1))
	)
	(port
		(pt 0 56)
		(input)
		(text "IN3" (rect 20 52 37 64)(font "Courier New" (bold)))
		(text "IN3" (rect 20 52 37 64)(font "Courier New" (bold)))
		(line (pt 0 56)(pt 16 56)(line_width 1))
	)
	(port
		(pt 0 40)
		(input)
		(text "IN2" (rect 20 36 37 48)(font "Courier New" (bold)))
		(text "IN2" (rect 20 36 37 48)(font "Courier New" (bold)))
		(line (pt 0 40)(pt 16 40)(line_width 1))
	)
	(port
		(pt 0 24)
		(input)
		(text "IN1" (rect 20 20 37 32)(font "Courier New" (bold)))
		(text "IN1" (rect 20 20 37 32)(font "Courier New" (bold)))
		(line (pt 0 24)(pt 16 24)(line_width 1))
	)
	(port
		(pt 104 56)
		(output)
		(text "OUT" (rect 71 52 88 64)(font "Courier New" (bold)))
		(text "OUT" (rect 71 52 88 64)(font "Courier New" (bold)))
		(line (pt 88 56)(pt 104 56)(line_width 1))
	)
	(drawing
		(line (pt 16 96)(pt 16 16)(line_width 1))
		(line (pt 88 96)(pt 88 16)(line_width 1))
		(line (pt 16 96)(pt 88 96)(line_width 1))
		(line (pt 16 16)(pt 88 16)(line_width 1))
	)
)
(symbol
	(rect 1056 504 1120 552)
	(text "NAND2" (rect 1 0 32 10)(font "Arial" (font_size 6)))
	(text "4_n1" (rect 3 37 26 49)(font "Arial" ))
	(port
		(pt 0 32)
		(input)
		(text "IN2" (rect 2 23 19 35)(font "Courier New" (bold))(invisible))
		(text "IN2" (rect 2 23 19 35)(font "Courier New" (bold))(invisible))
		(line (pt 0 32)(pt 15 32)(line_width 1))
	)
	(port
		(pt 0 16)
		(input)
		(text "IN1" (rect 2 7 19 19)(font "Courier New" (bold))(invisible))
		(text "IN1" (rect 2 7 19 19)(font "Courier New" (bold))(invisible))
		(line (pt 0 16)(pt 15 16)(line_width 1))
	)
	(port
		(pt 64 24)
		(output)
		(text "OUT" (rect 48 15 65 27)(font "Courier New" (bold))(invisible))
		(text "OUT" (rect 48 15 65 27)(font "Courier New" (bold))(invisible))
		(line (pt 52 24)(pt 64 24)(line_width 1))
	)
	(drawing
		(line (pt 15 37)(pt 32 37)(line_width 1))
		(line (pt 15 12)(pt 32 12)(line_width 1))
		(line (pt 15 36)(pt 15 12)(line_width 1))
		(arc (pt 32 36)(pt 32 12)(rect 20 12 45 37)(line_width 1))
		(circle (rect 44 20 52 28)(line_width 1))
	)
)
(symbol
	(rect 1056 568 1120 616)
	(text "NAND3" (rect 1 0 32 10)(font "Arial" (font_size 6)))
	(text "4_n3_2" (rect 3 37 38 49)(font "Arial" ))
	(port
		(pt 0 16)
		(input)
		(text "IN1" (rect 2 7 19 19)(font "Courier New" (bold))(invisible))
		(text "IN1" (rect 2 7 19 19)(font "Courier New" (bold))(invisible))
		(line (pt 0 16)(pt 16 16)(line_width 1))
	)
	(port
		(pt 0 24)
		(input)
		(text "IN2" (rect 2 15 19 27)(font "Courier New" (bold))(invisible))
		(text "IN2" (rect 2 15 19 27)(font "Courier New" (bold))(invisible))
		(line (pt 0 24)(pt 16 24)(line_width 1))
	)
	(port
		(pt 0 32)
		(input)
		(text "IN3" (rect 2 23 19 35)(font "Courier New" (bold))(invisible))
		(text "IN3" (rect 2 23 19 35)(font "Courier New" (bold))(invisible))
		(line (pt 0 32)(pt 16 32)(line_width 1))
	)
	(port
		(pt 64 24)
		(output)
		(text "OUT" (rect 48 15 65 27)(font "Courier New" (bold))(invisible))
		(text "OUT" (rect 48 15 65 27)(font "Courier New" (bold))(invisible))
		(line (pt 52 24)(pt 64 24)(line_width 1))
	)
	(drawing
		(line (pt 16 37)(pt 32 37)(line_width 1))
		(line (pt 16 12)(pt 32 12)(line_width 1))
		(line (pt 16 36)(pt 16 12)(line_width 1))
		(arc (pt 32 36)(pt 32 12)(rect 20 12 45 37)(line_width 1))
		(circle (rect 44 20 52 28)(line_width 1))
	)
)
(symbol
	(rect 1048 432 1112 480)
	(text "NAND3" (rect 1 0 32 10)(font "Arial" (font_size 6)))
	(text "n4_3_1" (rect 3 37 38 49)(font "Arial" ))
	(port
		(pt 0 16)
		(input)
		(text "IN1" (rect 2 7 19 19)(font "Courier New" (bold))(invisible))
		(text "IN1" (rect 2 7 19 19)(font "Courier New" (bold))(invisible))
		(line (pt 0 16)(pt 16 16)(line_width 1))
	)
	(port
		(pt 0 24)
		(input)
		(text "IN2" (rect 2 15 19 27)(font "Courier New" (bold))(invisible))
		(text "IN2" (rect 2 15 19 27)(font "Courier New" (bold))(invisible))
		(line (pt 0 24)(pt 16 24)(line_width 1))
	)
	(port
		(pt 0 32)
		(input)
		(text "IN3" (rect 2 23 19 35)(font "Courier New" (bold))(invisible))
		(text "IN3" (rect 2 23 19 35)(font "Courier New" (bold))(invisible))
		(line (pt 0 32)(pt 16 32)(line_width 1))
	)
	(port
		(pt 64 24)
		(output)
		(text "OUT" (rect 48 15 65 27)(font "Courier New" (bold))(invisible))
		(text "OUT" (rect 48 15 65 27)(font "Courier New" (bold))(invisible))
		(line (pt 52 24)(pt 64 24)(line_width 1))
	)
	(drawing
		(line (pt 16 37)(pt 32 37)(line_width 1))
		(line (pt 16 12)(pt 32 12)(line_width 1))
		(line (pt 16 36)(pt 16 12)(line_width 1))
		(arc (pt 32 36)(pt 32 12)(rect 20 12 45 37)(line_width 1))
		(circle (rect 44 20 52 28)(line_width 1))
	)
)
(symbol
	(rect 1056 632 1120 680)
	(text "NAND3" (rect 1 0 32 10)(font "Arial" (font_size 6)))
	(text "n3_2_n1" (rect 3 37 44 49)(font "Arial" ))
	(port
		(pt 0 16)
		(input)
		(text "IN1" (rect 2 7 19 19)(font "Courier New" (bold))(invisible))
		(text "IN1" (rect 2 7 19 19)(font "Courier New" (bold))(invisible))
		(line (pt 0 16)(pt 16 16)(line_width 1))
	)
	(port
		(pt 0 24)
		(input)
		(text "IN2" (rect 2 15 19 27)(font "Courier New" (bold))(invisible))
		(text "IN2" (rect 2 15 19 27)(font "Courier New" (bold))(invisible))
		(line (pt 0 24)(pt 16 24)(line_width 1))
	)
	(port
		(pt 0 32)
		(input)
		(text "IN3" (rect 2 23 19 35)(font "Courier New" (bold))(invisible))
		(text "IN3" (rect 2 23 19 35)(font "Courier New" (bold))(invisible))
		(line (pt 0 32)(pt 16 32)(line_width 1))
	)
	(port
		(pt 64 24)
		(output)
		(text "OUT" (rect 48 15 65 27)(font "Courier New" (bold))(invisible))
		(text "OUT" (rect 48 15 65 27)(font "Courier New" (bold))(invisible))
		(line (pt 52 24)(pt 64 24)(line_width 1))
	)
	(drawing
		(line (pt 16 37)(pt 32 37)(line_width 1))
		(line (pt 16 12)(pt 32 12)(line_width 1))
		(line (pt 16 36)(pt 16 12)(line_width 1))
		(arc (pt 32 36)(pt 32 12)(rect 20 12 45 37)(line_width 1))
		(circle (rect 44 20 52 28)(line_width 1))
	)
)
(symbol
	(rect 1160 472 1224 520)
	(text "NAND3" (rect 1 0 32 10)(font "Arial" (font_size 6)))
	(text "n4_n2_1" (rect 3 37 44 49)(font "Arial" ))
	(port
		(pt 0 16)
		(input)
		(text "IN1" (rect 2 7 19 19)(font "Courier New" (bold))(invisible))
		(text "IN1" (rect 2 7 19 19)(font "Courier New" (bold))(invisible))
		(line (pt 0 16)(pt 16 16)(line_width 1))
	)
	(port
		(pt 0 24)
		(input)
		(text "IN2" (rect 2 15 19 27)(font "Courier New" (bold))(invisible))
		(text "IN2" (rect 2 15 19 27)(font "Courier New" (bold))(invisible))
		(line (pt 0 24)(pt 16 24)(line_width 1))
	)
	(port
		(pt 0 32)
		(input)
		(text "IN3" (rect 2 23 19 35)(font "Courier New" (bold))(invisible))
		(text "IN3" (rect 2 23 19 35)(font "Courier New" (bold))(invisible))
		(line (pt 0 32)(pt 16 32)(line_width 1))
	)
	(port
		(pt 64 24)
		(output)
		(text "OUT" (rect 48 15 65 27)(font "Courier New" (bold))(invisible))
		(text "OUT" (rect 48 15 65 27)(font "Courier New" (bold))(invisible))
		(line (pt 52 24)(pt 64 24)(line_width 1))
	)
	(drawing
		(line (pt 16 37)(pt 32 37)(line_width 1))
		(line (pt 16 12)(pt 32 12)(line_width 1))
		(line (pt 16 36)(pt 16 12)(line_width 1))
		(arc (pt 32 36)(pt 32 12)(rect 20 12 45 37)(line_width 1))
		(circle (rect 44 20 52 28)(line_width 1))
	)
)
(symbol
	(rect 1184 552 1288 664)
	(text "NAND5" (rect 29 -1 76 15)(font "Courier New" (font_size 10)(bold)))
	(text "inst6" (rect 3 101 26 113)(font "Arial" ))
	(port
		(pt 0 88)
		(input)
		(text "IN5" (rect 20 84 37 96)(font "Courier New" (bold)))
		(text "IN5" (rect 20 84 37 96)(font "Courier New" (bold)))
		(line (pt 0 88)(pt 16 88)(line_width 1))
	)
	(port
		(pt 0 72)
		(input)
		(text "IN4" (rect 20 68 37 80)(font "Courier New" (bold)))
		(text "IN4" (rect 20 68 37 80)(font "Courier New" (bold)))
		(line (pt 0 72)(pt 16 72)(line_width 1))
	)
	(port
		(pt 0 56)
		(input)
		(text "IN3" (rect 20 52 37 64)(font "Courier New" (bold)))
		(text "IN3" (rect 20 52 37 64)(font "Courier New" (bold)))
		(line (pt 0 56)(pt 16 56)(line_width 1))
	)
	(port
		(pt 0 40)
		(input)
		(text "IN2" (rect 20 36 37 48)(font "Courier New" (bold)))
		(text "IN2" (rect 20 36 37 48)(font "Courier New" (bold)))
		(line (pt 0 40)(pt 16 40)(line_width 1))
	)
	(port
		(pt 0 24)
		(input)
		(text "IN1" (rect 20 20 37 32)(font "Courier New" (bold)))
		(text "IN1" (rect 20 20 37 32)(font "Courier New" (bold)))
		(line (pt 0 24)(pt 16 24)(line_width 1))
	)
	(port
		(pt 104 56)
		(output)
		(text "OUT" (rect 71 52 88 64)(font "Courier New" (bold)))
		(text "OUT" (rect 71 52 88 64)(font "Courier New" (bold)))
		(line (pt 88 56)(pt 104 56)(line_width 1))
	)
	(drawing
		(line (pt 16 96)(pt 16 16)(line_width 1))
		(line (pt 88 96)(pt 88 16)(line_width 1))
		(line (pt 16 96)(pt 88 96)(line_width 1))
		(line (pt 16 16)(pt 88 16)(line_width 1))
	)
)
(connector
	(pt 152 104)
	(pt 144 104)
)
(connector
	(pt 152 88)
	(pt 144 88)
)
(connector
	(pt 144 104)
	(pt 144 88)
)
(connector
	(pt 144 88)
	(pt 144 64)
)
(connector
	(pt 144 64)
	(pt 232 64)
)
(connector
	(pt 224 48)
	(pt 232 48)
)
(connector
	(pt 160 208)
	(pt 152 208)
)
(connector
	(pt 160 224)
	(pt 152 224)
)
(connector
	(pt 152 184)
	(pt 152 208)
)
(connector
	(pt 152 208)
	(pt 152 224)
)
(connector
	(pt 152 184)
	(pt 232 184)
)
(connector
	(pt 232 168)
	(pt 224 168)
)
(connector
	(pt 160 344)
	(pt 152 344)
)
(connector
	(pt 160 328)
	(pt 152 328)
)
(connector
	(pt 152 344)
	(pt 152 328)
)
(connector
	(pt 152 328)
	(pt 152 304)
)
(connector
	(pt 232 288)
	(pt 224 288)
)
(connector
	(pt 160 456)
	(pt 152 456)
)
(connector
	(pt 152 432)
	(pt 232 432)
)
(connector
	(pt 232 416)
	(pt 224 416)
)
(connector
	(pt 232 288)
	(pt 232 304)
)
(connector
	(pt 152 304)
	(pt 232 304)
)
(connector
	(pt 384 320)
	(pt 376 320)
)
(connector
	(pt 232 416)
	(pt 232 424)
)
(connector
	(pt 232 424)
	(pt 232 432)
)
(connector
	(pt 384 432)
	(pt 368 432)
)
(connector
	(pt 368 432)
	(pt 368 304)
)
(connector
	(pt 368 304)
	(pt 384 304)
)
(connector
	(pt 384 440)
	(pt 360 440)
)
(connector
	(pt 360 96)
	(pt 216 96)
)
(connector
	(pt 384 168)
	(pt 352 168)
)
(connector
	(pt 352 168)
	(pt 352 424)
)
(connector
	(pt 352 424)
	(pt 384 424)
)
(connector
	(pt 384 176)
	(pt 376 176)
)
(connector
	(pt 376 176)
	(pt 376 216)
)
(connector
	(pt 384 184)
	(pt 360 184)
)
(connector
	(pt 360 96)
	(pt 360 184)
)
(connector
	(pt 232 184)
	(pt 232 176)
)
(connector
	(pt 232 176)
	(pt 232 168)
)
(connector
	(pt 384 488)
	(pt 352 488)
)
(connector
	(pt 352 464)
	(pt 352 488)
)
(connector
	(pt 384 360)
	(pt 344 360)
)
(connector
	(pt 344 496)
	(pt 344 360)
)
(connector
	(pt 344 360)
	(pt 344 336)
)
(connector
	(pt 384 368)
	(pt 336 368)
)
(connector
	(pt 336 504)
	(pt 336 368)
)
(connector
	(pt 336 368)
	(pt 336 176)
)
(connector
	(pt 384 376)
	(pt 328 376)
)
(connector
	(pt 328 56)
	(pt 232 56)
)
(connector
	(pt 232 48)
	(pt 232 56)
)
(connector
	(pt 232 56)
	(pt 232 64)
)
(connector
	(pt 448 432)
	(pt 480 432)
)
(connector
	(pt 448 312)
	(pt 472 312)
)
(connector
	(pt 448 176)
	(pt 488 176)
)
(connector
	(pt 224 464)
	(pt 352 464)
)
(connector
	(pt 352 464)
	(pt 512 464)
)
(connector
	(pt 376 216)
	(pt 376 320)
)
(connector
	(pt 320 304)
	(pt 320 256)
)
(connector
	(pt 312 176)
	(pt 312 272)
)
(connector
	(pt 320 304)
	(pt 368 304)
)
(connector
	(pt 232 176)
	(pt 312 176)
)
(connector
	(pt 312 176)
	(pt 336 176)
)
(connector
	(pt 312 272)
	(pt 536 272)
)
(connector
	(pt 320 528)
	(pt 520 528)
)
(connector
	(pt 320 528)
	(pt 320 336)
)
(connector
	(pt 224 336)
	(pt 320 336)
)
(connector
	(pt 320 336)
	(pt 344 336)
)
(connector
	(pt 224 216)
	(pt 376 216)
)
(connector
	(pt 512 200)
	(pt 536 200)
)
(connector
	(pt 328 232)
	(pt 464 232)
)
(connector
	(pt 328 232)
	(pt 328 56)
)
(connector
	(pt 464 232)
	(pt 464 352)
)
(connector
	(pt 320 256)
	(pt 520 256)
)
(connector
	(pt 520 256)
	(pt 536 256)
)
(connector
	(pt 520 336)
	(pt 552 336)
)
(connector
	(pt 544 424)
	(pt 552 424)
)
(connector
	(pt 464 352)
	(pt 544 352)
)
(connector
	(pt 544 352)
	(pt 552 352)
)
(connector
	(pt 512 200)
	(pt 512 408)
)
(connector
	(pt 512 408)
	(pt 512 464)
)
(connector
	(pt 520 528)
	(pt 520 536)
)
(connector
	(pt 528 552)
	(pt 568 552)
)
(connector
	(pt 376 216)
	(pt 528 216)
)
(connector
	(pt 528 216)
	(pt 536 216)
)
(connector
	(pt 504 536)
	(pt 312 536)
)
(connector
	(pt 312 536)
	(pt 312 424)
)
(connector
	(pt 232 424)
	(pt 312 424)
)
(connector
	(pt 312 424)
	(pt 352 424)
)
(connector
	(pt 568 480)
	(pt 512 480)
)
(connector
	(pt 512 480)
	(pt 512 544)
)
(connector
	(pt 512 544)
	(pt 376 544)
)
(connector
	(pt 376 544)
	(pt 376 496)
)
(connector
	(pt 384 496)
	(pt 376 496)
)
(connector
	(pt 376 496)
	(pt 344 496)
)
(connector
	(pt 544 488)
	(pt 544 560)
)
(connector
	(pt 544 560)
	(pt 360 560)
)
(connector
	(pt 360 184)
	(pt 360 440)
)
(connector
	(pt 600 208)
	(pt 608 208)
)
(connector
	(pt 472 312)
	(pt 472 -24)
)
(connector
	(pt 472 -24)
	(pt 520 -24)
)
(connector
	(pt 480 432)
	(pt 480 -8)
)
(connector
	(pt 480 -8)
	(pt 520 -8)
)
(connector
	(pt 488 176)
	(pt 488 8)
)
(connector
	(pt 488 8)
	(pt 520 8)
)
(connector
	(pt 496 496)
	(pt 496 24)
)
(connector
	(pt 496 24)
	(pt 520 24)
)
(connector
	(pt 504 368)
	(pt 504 40)
)
(connector
	(pt 504 40)
	(pt 520 40)
)
(connector
	(pt 600 264)
	(pt 616 264)
)
(connector
	(pt 632 544)
	(pt 656 544)
)
(connector
	(pt 616 344)
	(pt 632 344)
)
(connector
	(pt 616 416)
	(pt 640 416)
)
(connector
	(pt 632 480)
	(pt 648 480)
)
(connector
	(pt 608 208)
	(pt 608 72)
)
(connector
	(pt 608 72)
	(pt 664 72)
)
(connector
	(pt 616 264)
	(pt 616 88)
)
(connector
	(pt 616 88)
	(pt 664 88)
)
(connector
	(pt 656 544)
	(pt 656 104)
)
(connector
	(pt 656 104)
	(pt 664 104)
)
(connector
	(pt 632 344)
	(pt 632 120)
)
(connector
	(pt 632 120)
	(pt 664 120)
)
(connector
	(pt 640 416)
	(pt 640 136)
)
(connector
	(pt 640 136)
	(pt 664 136)
)
(connector
	(pt 648 480)
	(pt 648 152)
)
(connector
	(pt 648 152)
	(pt 664 152)
)
(connector
	(pt 1136 80)
	(pt 1136 88)
)
(connector
	(pt 1136 88)
	(pt 1160 88)
)
(connector
	(pt 1152 128)
	(pt 1160 128)
)
(connector
	(pt 624 8)
	(pt 1112 8)
)
(connector
	(pt 1160 40)
	(pt 1112 40)
)
(connector
	(pt 728 112)
	(pt 1152 112)
)
(connector
	(pt 1160 184)
	(pt 1112 184)
)
(connector
	(pt 1152 128)
	(pt 1152 112)
)
(connector
	(pt 1112 8)
	(pt 1112 40)
)
(connector
	(pt 1112 40)
	(pt 1112 184)
)
(connector
	(pt 696 216)
	(pt 672 216)
)
(connector
	(pt 672 216)
	(pt 672 512)
)
(connector
	(pt 504 512)
	(pt 672 512)
)
(connector
	(pt 504 536)
	(pt 504 512)
)
(connector
	(pt 504 512)
	(pt 504 472)
)
(connector
	(pt 696 224)
	(pt 680 224)
)
(connector
	(pt 680 224)
	(pt 680 296)
)
(connector
	(pt 520 256)
	(pt 520 296)
)
(connector
	(pt 520 296)
	(pt 520 336)
)
(connector
	(pt 696 232)
	(pt 688 232)
)
(connector
	(pt 688 176)
	(pt 528 176)
)
(connector
	(pt 528 176)
	(pt 528 216)
)
(connector
	(pt 520 296)
	(pt 680 296)
)
(connector
	(pt 680 296)
	(pt 704 296)
)
(connector
	(pt 704 304)
	(pt 688 304)
)
(connector
	(pt 688 176)
	(pt 688 232)
)
(connector
	(pt 688 232)
	(pt 688 304)
)
(connector
	(pt 704 312)
	(pt 680 312)
)
(connector
	(pt 680 576)
	(pt 560 576)
)
(connector
	(pt 560 576)
	(pt 560 488)
)
(connector
	(pt 568 488)
	(pt 560 488)
)
(connector
	(pt 560 488)
	(pt 544 488)
)
(connector
	(pt 768 304)
	(pt 776 304)
)
(connector
	(pt 696 584)
	(pt 456 584)
)
(connector
	(pt 456 584)
	(pt 456 496)
)
(connector
	(pt 448 496)
	(pt 456 496)
)
(connector
	(pt 456 496)
	(pt 496 496)
)
(connector
	(pt 664 448)
	(pt 488 448)
)
(connector
	(pt 488 448)
	(pt 488 368)
)
(connector
	(pt 448 368)
	(pt 488 368)
)
(connector
	(pt 488 368)
	(pt 504 368)
)
(connector
	(pt 760 224)
	(pt 784 224)
)
(connector
	(pt 776 304)
	(pt 776 240)
)
(connector
	(pt 776 240)
	(pt 784 240)
)
(connector
	(pt 696 256)
	(pt 784 256)
)
(connector
	(pt 696 584)
	(pt 696 256)
)
(connector
	(pt 664 272)
	(pt 784 272)
)
(connector
	(pt 664 448)
	(pt 664 272)
)
(connector
	(pt 848 248)
	(pt 1160 248)
)
(connector
	(pt 704 376)
	(pt 544 376)
)
(connector
	(pt 544 352)
	(pt 544 376)
)
(connector
	(pt 544 376)
	(pt 544 424)
)
(connector
	(pt 536 408)
	(pt 536 384)
)
(connector
	(pt 704 376)
	(pt 704 400)
)
(connector
	(pt 512 408)
	(pt 536 408)
)
(connector
	(pt 536 408)
	(pt 552 408)
)
(connector
	(pt 712 392)
	(pt 712 592)
)
(connector
	(pt 368 592)
	(pt 712 592)
)
(connector
	(pt 368 592)
	(pt 368 504)
)
(connector
	(pt 384 504)
	(pt 368 504)
)
(connector
	(pt 368 504)
	(pt 336 504)
)
(connector
	(pt 760 464)
	(pt 720 464)
)
(connector
	(pt 536 384)
	(pt 720 384)
)
(connector
	(pt 720 384)
	(pt 760 384)
)
(connector
	(pt 760 472)
	(pt 720 472)
)
(connector
	(pt 552 600)
	(pt 720 600)
)
(connector
	(pt 552 600)
	(pt 552 536)
)
(connector
	(pt 520 536)
	(pt 552 536)
)
(connector
	(pt 552 536)
	(pt 568 536)
)
(connector
	(pt 728 480)
	(pt 728 400)
)
(connector
	(pt 704 400)
	(pt 728 400)
)
(connector
	(pt 728 400)
	(pt 760 400)
)
(connector
	(pt 536 608)
	(pt 728 608)
)
(connector
	(pt 536 608)
	(pt 536 472)
)
(connector
	(pt 568 472)
	(pt 536 472)
)
(connector
	(pt 536 472)
	(pt 504 472)
)
(connector
	(pt 304 616)
	(pt 304 304)
)
(connector
	(pt 232 304)
	(pt 304 304)
)
(connector
	(pt 304 304)
	(pt 320 304)
)
(connector
	(pt 528 216)
	(pt 528 552)
)
(connector
	(pt 528 552)
	(pt 528 624)
)
(connector
	(pt 328 232)
	(pt 328 376)
)
(connector
	(pt 328 376)
	(pt 328 632)
)
(connector
	(pt 728 584)
	(pt 768 584)
)
(connector
	(pt 736 600)
	(pt 768 600)
)
(connector
	(pt 736 616)
	(pt 736 600)
)
(connector
	(pt 744 616)
	(pt 768 616)
)
(connector
	(pt 744 624)
	(pt 744 616)
)
(connector
	(pt 328 632)
	(pt 768 632)
)
(connector
	(pt 728 560)
	(pt 728 584)
)
(connector
	(pt 728 584)
	(pt 728 608)
)
(connector
	(pt 840 576)
	(pt 840 504)
)
(connector
	(pt 720 504)
	(pt 840 504)
)
(connector
	(pt 720 472)
	(pt 720 504)
)
(connector
	(pt 720 504)
	(pt 720 600)
)
(connector
	(pt 848 592)
	(pt 848 424)
)
(connector
	(pt 848 424)
	(pt 744 424)
)
(connector
	(pt 744 424)
	(pt 744 392)
)
(connector
	(pt 760 392)
	(pt 744 392)
)
(connector
	(pt 744 392)
	(pt 712 392)
)
(connector
	(pt 856 608)
	(pt 856 520)
)
(connector
	(pt 856 520)
	(pt 680 520)
)
(connector
	(pt 680 312)
	(pt 680 520)
)
(connector
	(pt 680 520)
	(pt 680 576)
)
(connector
	(pt 720 464)
	(pt 720 440)
)
(connector
	(pt 720 440)
	(pt 720 384)
)
(connector
	(pt 864 656)
	(pt 864 456)
)
(connector
	(pt 712 656)
	(pt 864 656)
)
(connector
	(pt 712 656)
	(pt 712 616)
)
(connector
	(pt 304 616)
	(pt 712 616)
)
(connector
	(pt 712 616)
	(pt 736 616)
)
(connector
	(pt 912 472)
	(pt 872 472)
)
(connector
	(pt 872 472)
	(pt 872 664)
)
(connector
	(pt 720 664)
	(pt 720 624)
)
(connector
	(pt 744 624)
	(pt 720 624)
)
(connector
	(pt 720 624)
	(pt 528 624)
)
(connector
	(pt 912 488)
	(pt 880 488)
)
(connector
	(pt 880 488)
	(pt 880 608)
)
(connector
	(pt 880 608)
	(pt 856 608)
)
(connector
	(pt 824 392)
	(pt 864 392)
)
(connector
	(pt 864 392)
	(pt 864 296)
)
(connector
	(pt 864 296)
	(pt 936 296)
)
(connector
	(pt 824 472)
	(pt 832 472)
)
(connector
	(pt 832 472)
	(pt 832 400)
)
(connector
	(pt 832 400)
	(pt 872 400)
)
(connector
	(pt 872 312)
	(pt 872 400)
)
(connector
	(pt 872 312)
	(pt 936 312)
)
(connector
	(pt 832 608)
	(pt 840 608)
)
(connector
	(pt 840 608)
	(pt 840 640)
)
(connector
	(pt 888 640)
	(pt 840 640)
)
(connector
	(pt 888 640)
	(pt 888 328)
)
(connector
	(pt 888 328)
	(pt 936 328)
)
(connector
	(pt 984 584)
	(pt 1000 584)
)
(connector
	(pt 1000 400)
	(pt 1000 584)
)
(connector
	(pt 896 400)
	(pt 1000 400)
)
(connector
	(pt 896 400)
	(pt 896 344)
)
(connector
	(pt 896 344)
	(pt 936 344)
)
(connector
	(pt 976 464)
	(pt 984 464)
)
(connector
	(pt 984 464)
	(pt 984 408)
)
(connector
	(pt 984 408)
	(pt 904 408)
)
(connector
	(pt 904 408)
	(pt 904 360)
)
(connector
	(pt 904 360)
	(pt 936 360)
)
(connector
	(pt 1040 328)
	(pt 1160 328)
)
(connector
	(pt 1056 536)
	(pt 1008 536)
)
(connector
	(pt 1008 536)
	(pt 1008 632)
)
(connector
	(pt 1008 632)
	(pt 904 632)
)
(connector
	(pt 904 632)
	(pt 904 608)
)
(connector
	(pt 920 608)
	(pt 904 608)
)
(connector
	(pt 904 608)
	(pt 880 608)
)
(connector
	(pt 1056 584)
	(pt 1040 584)
)
(connector
	(pt 1056 520)
	(pt 1040 520)
)
(connector
	(pt 1016 592)
	(pt 1016 640)
)
(connector
	(pt 1016 640)
	(pt 912 640)
)
(connector
	(pt 912 576)
	(pt 912 640)
)
(connector
	(pt 840 576)
	(pt 912 576)
)
(connector
	(pt 912 576)
	(pt 920 576)
)
(connector
	(pt 1024 600)
	(pt 1024 648)
)
(connector
	(pt 896 648)
	(pt 1024 648)
)
(connector
	(pt 896 648)
	(pt 896 592)
)
(connector
	(pt 920 592)
	(pt 896 592)
)
(connector
	(pt 896 592)
	(pt 848 592)
)
(connector
	(pt 992 448)
	(pt 992 512)
)
(connector
	(pt 992 512)
	(pt 904 512)
)
(connector
	(pt 904 512)
	(pt 904 440)
)
(connector
	(pt 912 440)
	(pt 904 440)
)
(connector
	(pt 904 440)
	(pt 720 440)
)
(connector
	(pt 896 560)
	(pt 896 528)
)
(connector
	(pt 1040 528)
	(pt 896 528)
)
(connector
	(pt 728 560)
	(pt 896 560)
)
(connector
	(pt 896 560)
	(pt 920 560)
)
(connector
	(pt 1040 520)
	(pt 1040 528)
)
(connector
	(pt 1040 528)
	(pt 1040 584)
)
(connector
	(pt 1048 456)
	(pt 1008 456)
)
(connector
	(pt 1008 456)
	(pt 1008 520)
)
(connector
	(pt 1008 520)
	(pt 896 520)
)
(connector
	(pt 896 520)
	(pt 896 456)
)
(connector
	(pt 912 456)
	(pt 896 456)
)
(connector
	(pt 896 456)
	(pt 864 456)
)
(connector
	(pt 1016 464)
	(pt 1016 416)
)
(connector
	(pt 1016 416)
	(pt 856 416)
)
(connector
	(pt 856 416)
	(pt 856 512)
)
(connector
	(pt 752 512)
	(pt 856 512)
)
(connector
	(pt 752 512)
	(pt 752 480)
)
(connector
	(pt 760 480)
	(pt 752 480)
)
(connector
	(pt 752 480)
	(pt 728 480)
)
(connector
	(pt 1056 648)
	(pt 1048 648)
)
(connector
	(pt 1048 648)
	(pt 1048 592)
)
(connector
	(pt 1056 592)
	(pt 1048 592)
)
(connector
	(pt 1048 592)
	(pt 1016 592)
)
(connector
	(pt 1056 656)
	(pt 1040 656)
)
(connector
	(pt 1040 656)
	(pt 1040 600)
)
(connector
	(pt 1056 600)
	(pt 1040 600)
)
(connector
	(pt 1040 600)
	(pt 1024 600)
)
(connector
	(pt 1056 664)
	(pt 880 664)
)
(connector
	(pt 880 664)
	(pt 880 672)
)
(connector
	(pt 360 672)
	(pt 880 672)
)
(connector
	(pt 360 440)
	(pt 360 560)
)
(connector
	(pt 360 560)
	(pt 360 672)
)
(connector
	(pt 1160 488)
	(pt 1040 488)
)
(connector
	(pt 1040 488)
	(pt 1040 448)
)
(connector
	(pt 1048 448)
	(pt 1040 448)
)
(connector
	(pt 1040 448)
	(pt 992 448)
)
(connector
	(pt 1160 496)
	(pt 1032 496)
)
(connector
	(pt 1032 496)
	(pt 1032 680)
)
(connector
	(pt 1032 680)
	(pt 864 680)
)
(connector
	(pt 864 680)
	(pt 864 664)
)
(connector
	(pt 872 664)
	(pt 864 664)
)
(connector
	(pt 864 664)
	(pt 720 664)
)
(connector
	(pt 1160 504)
	(pt 1128 504)
)
(connector
	(pt 1128 504)
	(pt 1128 424)
)
(connector
	(pt 1128 424)
	(pt 1032 424)
)
(connector
	(pt 1032 424)
	(pt 1032 464)
)
(connector
	(pt 1048 464)
	(pt 1032 464)
)
(connector
	(pt 1032 464)
	(pt 1016 464)
)
(connector
	(pt 1120 528)
	(pt 1128 528)
)
(connector
	(pt 1128 528)
	(pt 1128 576)
)
(connector
	(pt 1128 576)
	(pt 1184 576)
)
(connector
	(pt 1120 592)
	(pt 1184 592)
)
(connector
	(pt 1112 456)
	(pt 1152 456)
)
(connector
	(pt 1152 456)
	(pt 1152 608)
)
(connector
	(pt 1152 608)
	(pt 1184 608)
)
(connector
	(pt 1120 656)
	(pt 1152 656)
)
(connector
	(pt 1152 656)
	(pt 1152 624)
)
(connector
	(pt 1152 624)
	(pt 1184 624)
)
(connector
	(pt 1224 496)
	(pt 1232 496)
)
(connector
	(pt 1232 496)
	(pt 1232 536)
)
(connector
	(pt 1232 536)
	(pt 1160 536)
)
(connector
	(pt 1160 640)
	(pt 1160 536)
)
(connector
	(pt 1160 640)
	(pt 1184 640)
)
(connector
	(pt 1288 608)
	(pt 1304 608)
)
(connector
	(pt 1304 608)
	(pt 1304 384)
)
(connector
	(pt 1136 384)
	(pt 1304 384)
)
(connector
	(pt 1136 384)
	(pt 1136 360)
)
(connector
	(pt 1136 360)
	(pt 1152 360)
)
(connector
	(pt 160 472)
	(pt 152 472)
)
(connector
	(pt 152 432)
	(pt 152 456)
)
(connector
	(pt 152 456)
	(pt 152 472)
)
(junction (pt 144 88))
(junction (pt 152 208))
(junction (pt 152 328))
(junction (pt 232 304))
(junction (pt 232 424))
(junction (pt 368 304))
(junction (pt 352 424))
(junction (pt 376 216))
(junction (pt 360 184))
(junction (pt 232 176))
(junction (pt 344 360))
(junction (pt 336 368))
(junction (pt 232 56))
(junction (pt 352 464))
(junction (pt 320 304))
(junction (pt 312 176))
(junction (pt 320 336))
(junction (pt 528 216))
(junction (pt 520 256))
(junction (pt 328 232))
(junction (pt 544 352))
(junction (pt 512 408))
(junction (pt 312 424))
(junction (pt 376 496))
(junction (pt 360 440))
(junction (pt 1112 40))
(junction (pt 504 512))
(junction (pt 520 296))
(junction (pt 680 296))
(junction (pt 688 232))
(junction (pt 560 488))
(junction (pt 456 496))
(junction (pt 488 368))
(junction (pt 536 408))
(junction (pt 544 376))
(junction (pt 368 504))
(junction (pt 720 384))
(junction (pt 552 536))
(junction (pt 728 400))
(junction (pt 536 472))
(junction (pt 304 304))
(junction (pt 528 552))
(junction (pt 328 376))
(junction (pt 728 584))
(junction (pt 720 504))
(junction (pt 744 392))
(junction (pt 680 520))
(junction (pt 720 440))
(junction (pt 712 616))
(junction (pt 720 624))
(junction (pt 880 608))
(junction (pt 896 560))
(junction (pt 904 608))
(junction (pt 912 576))
(junction (pt 896 592))
(junction (pt 904 440))
(junction (pt 1040 528))
(junction (pt 896 456))
(junction (pt 752 480))
(junction (pt 1048 592))
(junction (pt 1040 600))
(junction (pt 360 560))
(junction (pt 1040 448))
(junction (pt 864 664))
(junction (pt 1032 464))
(junction (pt 152 456))
